cycle              1000000:bit_error_cnt[          0]=               35288
cycle              1000000:bit_error_cnt[          1]=               35361
cycle              1000000:bit_error_cnt[          2]=               35672
cycle              1000000:bit_error_cnt[          3]=               36898
cycle              1000000:bit_error_cnt[          4]=               36845
cycle              1000000:bit_error_cnt[          5]=               35020
cycle              1000000:bit_error_cnt[          6]=               34964
cycle              1000000:bit_error_cnt[          7]=               35175
cycle              1000000:bit_error_cnt[          8]=               33196
cycle              1000000:bit_error_cnt[          9]=               32283
cycle              1000000:bit_error_cnt[         10]=               31117
cycle              1000000:bit_error_cnt[         11]=               30622
cycle              1000000:bit_error_cnt[         12]=               28991
cycle              1000000:bit_error_cnt[         13]=               24888
cycle              1000000:bit_error_cnt[         14]=               23894
cycle              1000000:bit_error_cnt[         15]=               22784
cycle              1000000:bit_error_cnt[         16]=               24079
cycle              1000000:bit_error_cnt[         17]=               23438
cycle              1000000:bit_error_cnt[         18]=               22394
cycle              1000000:bit_error_cnt[         19]=               23694
cycle              1000000:bit_error_cnt[         20]=               23619
cycle              1000000:bit_error_cnt[         21]=               20724
cycle              1000000:bit_error_cnt[         22]=               15258
cycle              1000000:bit_error_cnt[         23]=                6772
cycle              1000000:bit_error_cnt[         24]=                4035
cycle              1000000:bit_error_cnt[         25]=                2524
cycle              1000000:bit_error_cnt[         26]=                1753
cycle              1000000:bit_error_cnt[         27]=                1136
cycle              1000000:bit_error_cnt[         28]=                 901
cycle              1000000:bit_error_cnt[         29]=                 857
cycle              1000000:bit_error_cnt[         30]=                1266
cycle              1000000:bit_error_cnt[         31]=                 614
