cycle              1000000:bit_error_cnt[          0]=              478721
cycle              1000000:bit_error_cnt[          1]=              137665
cycle              1000000:bit_error_cnt[          2]=              136945
cycle              1000000:bit_error_cnt[          3]=              136199
cycle              1000000:bit_error_cnt[          4]=              136627
cycle              1000000:bit_error_cnt[          5]=              135037
cycle              1000000:bit_error_cnt[          6]=              130808
cycle              1000000:bit_error_cnt[          7]=              123365
cycle              1000000:bit_error_cnt[          8]=              124599
cycle              1000000:bit_error_cnt[          9]=              119804
cycle              1000000:bit_error_cnt[         10]=              118586
cycle              1000000:bit_error_cnt[         11]=              116328
cycle              1000000:bit_error_cnt[         12]=              100266
cycle              1000000:bit_error_cnt[         13]=              113964
cycle              1000000:bit_error_cnt[         14]=              116325
cycle              1000000:bit_error_cnt[         15]=              118314
cycle              1000000:bit_error_cnt[         16]=              105362
cycle              1000000:bit_error_cnt[         17]=              104159
cycle              1000000:bit_error_cnt[         18]=              107817
cycle              1000000:bit_error_cnt[         19]=              120683
cycle              1000000:bit_error_cnt[         20]=              108150
cycle              1000000:bit_error_cnt[         21]=              102839
cycle              1000000:bit_error_cnt[         22]=              108300
cycle              1000000:bit_error_cnt[         23]=              103644
cycle              1000000:bit_error_cnt[         24]=               87950
cycle              1000000:bit_error_cnt[         25]=               80684
cycle              1000000:bit_error_cnt[         26]=               74191
cycle              1000000:bit_error_cnt[         27]=               83180
cycle              1000000:bit_error_cnt[         28]=               81580
cycle              1000000:bit_error_cnt[         29]=               81911
cycle              1000000:bit_error_cnt[         30]=               82337
cycle              1000000:bit_error_cnt[         31]=              172963
