cycle                 1000:bit_error_cnt[          0]=                1000
cycle                 1000:bit_error_cnt[          1]=                  23
cycle                 1000:bit_error_cnt[          2]=                  34
cycle                 1000:bit_error_cnt[          3]=                  22
cycle                 1000:bit_error_cnt[          4]=                  26
cycle                 1000:bit_error_cnt[          5]=                  30
cycle                 1000:bit_error_cnt[          6]=                  26
cycle                 1000:bit_error_cnt[          7]=                  26
cycle                 1000:bit_error_cnt[          8]=                  26
cycle                 1000:bit_error_cnt[          9]=                  29
cycle                 1000:bit_error_cnt[         10]=                  23
cycle                 1000:bit_error_cnt[         11]=                  22
cycle                 1000:bit_error_cnt[         12]=                  31
cycle                 1000:bit_error_cnt[         13]=                  25
cycle                 1000:bit_error_cnt[         14]=                  26
cycle                 1000:bit_error_cnt[         15]=                  26
cycle                 1000:bit_error_cnt[         16]=                  24
cycle                 1000:bit_error_cnt[         17]=                  27
cycle                 1000:bit_error_cnt[         18]=                  22
cycle                 1000:bit_error_cnt[         19]=                  23
cycle                 1000:bit_error_cnt[         20]=                  32
cycle                 1000:bit_error_cnt[         21]=                  24
cycle                 1000:bit_error_cnt[         22]=                  20
cycle                 1000:bit_error_cnt[         23]=                 203
cycle                 1000:bit_error_cnt[         24]=                 205
cycle                 1000:bit_error_cnt[         25]=                 206
cycle                 1000:bit_error_cnt[         26]=                 208
cycle                 1000:bit_error_cnt[         27]=                 206
cycle                 1000:bit_error_cnt[         28]=                 213
cycle                 1000:bit_error_cnt[         29]=                 207
cycle                 1000:bit_error_cnt[         30]=                 205
cycle                 1000:bit_error_cnt[         31]=                 215
