cycle              1000000:bit_error_cnt[          0]=              624525
cycle              1000000:bit_error_cnt[          1]=               61613
cycle              1000000:bit_error_cnt[          2]=               60909
cycle              1000000:bit_error_cnt[          3]=               60970
cycle              1000000:bit_error_cnt[          4]=               60991
cycle              1000000:bit_error_cnt[          5]=               60996
cycle              1000000:bit_error_cnt[          6]=               61183
cycle              1000000:bit_error_cnt[          7]=               61004
cycle              1000000:bit_error_cnt[          8]=               60060
cycle              1000000:bit_error_cnt[          9]=               59453
cycle              1000000:bit_error_cnt[         10]=               51877
cycle              1000000:bit_error_cnt[         11]=               51029
cycle              1000000:bit_error_cnt[         12]=               46920
cycle              1000000:bit_error_cnt[         13]=               46271
cycle              1000000:bit_error_cnt[         14]=               46361
cycle              1000000:bit_error_cnt[         15]=               58883
cycle              1000000:bit_error_cnt[         16]=               59124
cycle              1000000:bit_error_cnt[         17]=               59962
cycle              1000000:bit_error_cnt[         18]=               58155
cycle              1000000:bit_error_cnt[         19]=               57480
cycle              1000000:bit_error_cnt[         20]=               57646
cycle              1000000:bit_error_cnt[         21]=               48720
cycle              1000000:bit_error_cnt[         22]=               47918
cycle              1000000:bit_error_cnt[         23]=              285789
cycle              1000000:bit_error_cnt[         24]=              286302
cycle              1000000:bit_error_cnt[         25]=              286005
cycle              1000000:bit_error_cnt[         26]=              286796
cycle              1000000:bit_error_cnt[         27]=              285736
cycle              1000000:bit_error_cnt[         28]=              286151
cycle              1000000:bit_error_cnt[         29]=              283798
cycle              1000000:bit_error_cnt[         30]=              280788
cycle              1000000:bit_error_cnt[         31]=              298098
