cycle              1000000:bit_error_cnt[          0]=               12928
cycle              1000000:bit_error_cnt[          1]=               13357
cycle              1000000:bit_error_cnt[          2]=               13630
cycle              1000000:bit_error_cnt[          3]=               15823
cycle              1000000:bit_error_cnt[          4]=               17926
cycle              1000000:bit_error_cnt[          5]=               15811
cycle              1000000:bit_error_cnt[          6]=               15120
cycle              1000000:bit_error_cnt[          7]=               15827
cycle              1000000:bit_error_cnt[          8]=               15237
cycle              1000000:bit_error_cnt[          9]=               16386
cycle              1000000:bit_error_cnt[         10]=               16086
cycle              1000000:bit_error_cnt[         11]=               16485
cycle              1000000:bit_error_cnt[         12]=               15513
cycle              1000000:bit_error_cnt[         13]=               11189
cycle              1000000:bit_error_cnt[         14]=                8893
cycle              1000000:bit_error_cnt[         15]=                7007
cycle              1000000:bit_error_cnt[         16]=                7131
cycle              1000000:bit_error_cnt[         17]=                7216
cycle              1000000:bit_error_cnt[         18]=                7787
cycle              1000000:bit_error_cnt[         19]=                9726
cycle              1000000:bit_error_cnt[         20]=                8645
cycle              1000000:bit_error_cnt[         21]=                5691
cycle              1000000:bit_error_cnt[         22]=                2861
cycle              1000000:bit_error_cnt[         23]=                1107
cycle              1000000:bit_error_cnt[         24]=                 654
cycle              1000000:bit_error_cnt[         25]=                 405
cycle              1000000:bit_error_cnt[         26]=                 271
cycle              1000000:bit_error_cnt[         27]=                 196
cycle              1000000:bit_error_cnt[         28]=                 149
cycle              1000000:bit_error_cnt[         29]=                 132
cycle              1000000:bit_error_cnt[         30]=                 118
cycle              1000000:bit_error_cnt[         31]=                  60
