cycle              1000000:bit_error_cnt[          0]=                1648
cycle              1000000:bit_error_cnt[          1]=                2189
cycle              1000000:bit_error_cnt[          2]=                2458
cycle              1000000:bit_error_cnt[          3]=                2510
cycle              1000000:bit_error_cnt[          4]=                3001
cycle              1000000:bit_error_cnt[          5]=                2714
cycle              1000000:bit_error_cnt[          6]=                2402
cycle              1000000:bit_error_cnt[          7]=                2058
cycle              1000000:bit_error_cnt[          8]=                1617
cycle              1000000:bit_error_cnt[          9]=                2057
cycle              1000000:bit_error_cnt[         10]=                2323
cycle              1000000:bit_error_cnt[         11]=                3373
cycle              1000000:bit_error_cnt[         12]=                3771
cycle              1000000:bit_error_cnt[         13]=                2640
cycle              1000000:bit_error_cnt[         14]=                1781
cycle              1000000:bit_error_cnt[         15]=                1206
cycle              1000000:bit_error_cnt[         16]=                1277
cycle              1000000:bit_error_cnt[         17]=                1136
cycle              1000000:bit_error_cnt[         18]=                 850
cycle              1000000:bit_error_cnt[         19]=                1243
cycle              1000000:bit_error_cnt[         20]=                1161
cycle              1000000:bit_error_cnt[         21]=                 612
cycle              1000000:bit_error_cnt[         22]=                 258
cycle              1000000:bit_error_cnt[         23]=                 141
cycle              1000000:bit_error_cnt[         24]=                 137
cycle              1000000:bit_error_cnt[         25]=                 117
cycle              1000000:bit_error_cnt[         26]=                 101
cycle              1000000:bit_error_cnt[         27]=                  94
cycle              1000000:bit_error_cnt[         28]=                  86
cycle              1000000:bit_error_cnt[         29]=                  83
cycle              1000000:bit_error_cnt[         30]=                  82
cycle              1000000:bit_error_cnt[         31]=                  23
