cycle              1000000:bit_error_cnt[          0]=                 333
cycle              1000000:bit_error_cnt[          1]=                 273
cycle              1000000:bit_error_cnt[          2]=                 211
cycle              1000000:bit_error_cnt[          3]=                 159
cycle              1000000:bit_error_cnt[          4]=                 129
cycle              1000000:bit_error_cnt[          5]=                 139
cycle              1000000:bit_error_cnt[          6]=                 113
cycle              1000000:bit_error_cnt[          7]=                  84
cycle              1000000:bit_error_cnt[          8]=                  60
cycle              1000000:bit_error_cnt[          9]=                  31
cycle              1000000:bit_error_cnt[         10]=                  23
cycle              1000000:bit_error_cnt[         11]=                 227
cycle              1000000:bit_error_cnt[         12]=                 434
cycle              1000000:bit_error_cnt[         13]=                 361
cycle              1000000:bit_error_cnt[         14]=                 217
cycle              1000000:bit_error_cnt[         15]=                 121
cycle              1000000:bit_error_cnt[         16]=                 189
cycle              1000000:bit_error_cnt[         17]=                 120
cycle              1000000:bit_error_cnt[         18]=                  28
cycle              1000000:bit_error_cnt[         19]=                  49
cycle              1000000:bit_error_cnt[         20]=                  47
cycle              1000000:bit_error_cnt[         21]=                  25
cycle              1000000:bit_error_cnt[         22]=                  11
cycle              1000000:bit_error_cnt[         23]=                   7
cycle              1000000:bit_error_cnt[         24]=                   2
cycle              1000000:bit_error_cnt[         25]=                   1
cycle              1000000:bit_error_cnt[         26]=                   1
cycle              1000000:bit_error_cnt[         27]=                   0
cycle              1000000:bit_error_cnt[         28]=                   0
cycle              1000000:bit_error_cnt[         29]=                   0
cycle              1000000:bit_error_cnt[         30]=                   0
cycle              1000000:bit_error_cnt[         31]=                   0
