cycle              1000000:bit_error_cnt[          0]=               23810
cycle              1000000:bit_error_cnt[          1]=               24522
cycle              1000000:bit_error_cnt[          2]=               25792
cycle              1000000:bit_error_cnt[          3]=               28124
cycle              1000000:bit_error_cnt[          4]=               28934
cycle              1000000:bit_error_cnt[          5]=               26451
cycle              1000000:bit_error_cnt[          6]=               26453
cycle              1000000:bit_error_cnt[          7]=               27239
cycle              1000000:bit_error_cnt[          8]=               25996
cycle              1000000:bit_error_cnt[          9]=               26272
cycle              1000000:bit_error_cnt[         10]=               25544
cycle              1000000:bit_error_cnt[         11]=               25033
cycle              1000000:bit_error_cnt[         12]=               23363
cycle              1000000:bit_error_cnt[         13]=               18183
cycle              1000000:bit_error_cnt[         14]=               16126
cycle              1000000:bit_error_cnt[         15]=               14215
cycle              1000000:bit_error_cnt[         16]=               14736
cycle              1000000:bit_error_cnt[         17]=               14696
cycle              1000000:bit_error_cnt[         18]=               14364
cycle              1000000:bit_error_cnt[         19]=               15759
cycle              1000000:bit_error_cnt[         20]=               15212
cycle              1000000:bit_error_cnt[         21]=               12225
cycle              1000000:bit_error_cnt[         22]=                6982
cycle              1000000:bit_error_cnt[         23]=                3129
cycle              1000000:bit_error_cnt[         24]=                1750
cycle              1000000:bit_error_cnt[         25]=                 939
cycle              1000000:bit_error_cnt[         26]=                 570
cycle              1000000:bit_error_cnt[         27]=                 349
cycle              1000000:bit_error_cnt[         28]=                 244
cycle              1000000:bit_error_cnt[         29]=                 194
cycle              1000000:bit_error_cnt[         30]=                 215
cycle              1000000:bit_error_cnt[         31]=                 129
