cycle              1000000:bit_error_cnt[          0]=              520600
cycle              1000000:bit_error_cnt[          1]=               95200
cycle              1000000:bit_error_cnt[          2]=               95717
cycle              1000000:bit_error_cnt[          3]=               97587
cycle              1000000:bit_error_cnt[          4]=               97320
cycle              1000000:bit_error_cnt[          5]=               94665
cycle              1000000:bit_error_cnt[          6]=               95628
cycle              1000000:bit_error_cnt[          7]=               95537
cycle              1000000:bit_error_cnt[          8]=               91021
cycle              1000000:bit_error_cnt[          9]=               92182
cycle              1000000:bit_error_cnt[         10]=               91250
cycle              1000000:bit_error_cnt[         11]=               88483
cycle              1000000:bit_error_cnt[         12]=               78781
cycle              1000000:bit_error_cnt[         13]=               74713
cycle              1000000:bit_error_cnt[         14]=               79076
cycle              1000000:bit_error_cnt[         15]=               82526
cycle              1000000:bit_error_cnt[         16]=               80139
cycle              1000000:bit_error_cnt[         17]=               84069
cycle              1000000:bit_error_cnt[         18]=               83494
cycle              1000000:bit_error_cnt[         19]=               94437
cycle              1000000:bit_error_cnt[         20]=               90659
cycle              1000000:bit_error_cnt[         21]=               79827
cycle              1000000:bit_error_cnt[         22]=               84469
cycle              1000000:bit_error_cnt[         23]=              116823
cycle              1000000:bit_error_cnt[         24]=              112562
cycle              1000000:bit_error_cnt[         25]=              118146
cycle              1000000:bit_error_cnt[         26]=              107411
cycle              1000000:bit_error_cnt[         27]=              118240
cycle              1000000:bit_error_cnt[         28]=              116422
cycle              1000000:bit_error_cnt[         29]=              112126
cycle              1000000:bit_error_cnt[         30]=              119058
cycle              1000000:bit_error_cnt[         31]=              189742
