cycle              1000000:bit_error_cnt[          0]=              508353
cycle              1000000:bit_error_cnt[          1]=              128428
cycle              1000000:bit_error_cnt[          2]=              127748
cycle              1000000:bit_error_cnt[          3]=              127064
cycle              1000000:bit_error_cnt[          4]=              127103
cycle              1000000:bit_error_cnt[          5]=              126098
cycle              1000000:bit_error_cnt[          6]=              122778
cycle              1000000:bit_error_cnt[          7]=              115822
cycle              1000000:bit_error_cnt[          8]=              114459
cycle              1000000:bit_error_cnt[          9]=              110243
cycle              1000000:bit_error_cnt[         10]=              105568
cycle              1000000:bit_error_cnt[         11]=              104102
cycle              1000000:bit_error_cnt[         12]=               94796
cycle              1000000:bit_error_cnt[         13]=              110135
cycle              1000000:bit_error_cnt[         14]=              109540
cycle              1000000:bit_error_cnt[         15]=              109385
cycle              1000000:bit_error_cnt[         16]=              102439
cycle              1000000:bit_error_cnt[         17]=               96047
cycle              1000000:bit_error_cnt[         18]=              101241
cycle              1000000:bit_error_cnt[         19]=              107720
cycle              1000000:bit_error_cnt[         20]=              104100
cycle              1000000:bit_error_cnt[         21]=               95013
cycle              1000000:bit_error_cnt[         22]=               95240
cycle              1000000:bit_error_cnt[         23]=              105151
cycle              1000000:bit_error_cnt[         24]=               94041
cycle              1000000:bit_error_cnt[         25]=               88931
cycle              1000000:bit_error_cnt[         26]=               91754
cycle              1000000:bit_error_cnt[         27]=               93887
cycle              1000000:bit_error_cnt[         28]=               89389
cycle              1000000:bit_error_cnt[         29]=               89347
cycle              1000000:bit_error_cnt[         30]=               98545
cycle              1000000:bit_error_cnt[         31]=              176995
