cycle              1000000:bit_error_cnt[          0]=              482352
cycle              1000000:bit_error_cnt[          1]=              140335
cycle              1000000:bit_error_cnt[          2]=              139618
cycle              1000000:bit_error_cnt[          3]=              139250
cycle              1000000:bit_error_cnt[          4]=              140448
cycle              1000000:bit_error_cnt[          5]=              139404
cycle              1000000:bit_error_cnt[          6]=              137198
cycle              1000000:bit_error_cnt[          7]=              129349
cycle              1000000:bit_error_cnt[          8]=              129879
cycle              1000000:bit_error_cnt[          9]=              125966
cycle              1000000:bit_error_cnt[         10]=              123815
cycle              1000000:bit_error_cnt[         11]=              121271
cycle              1000000:bit_error_cnt[         12]=              116722
cycle              1000000:bit_error_cnt[         13]=              116874
cycle              1000000:bit_error_cnt[         14]=              120019
cycle              1000000:bit_error_cnt[         15]=              121018
cycle              1000000:bit_error_cnt[         16]=              111069
cycle              1000000:bit_error_cnt[         17]=              108856
cycle              1000000:bit_error_cnt[         18]=              111474
cycle              1000000:bit_error_cnt[         19]=              124876
cycle              1000000:bit_error_cnt[         20]=              112000
cycle              1000000:bit_error_cnt[         21]=              107228
cycle              1000000:bit_error_cnt[         22]=              112989
cycle              1000000:bit_error_cnt[         23]=              108450
cycle              1000000:bit_error_cnt[         24]=               91093
cycle              1000000:bit_error_cnt[         25]=               82204
cycle              1000000:bit_error_cnt[         26]=               74830
cycle              1000000:bit_error_cnt[         27]=               80123
cycle              1000000:bit_error_cnt[         28]=               82374
cycle              1000000:bit_error_cnt[         29]=               81882
cycle              1000000:bit_error_cnt[         30]=               82355
cycle              1000000:bit_error_cnt[         31]=              172973
