cycle              1000000:bit_error_cnt[          0]=               32034
cycle              1000000:bit_error_cnt[          1]=               32250
cycle              1000000:bit_error_cnt[          2]=               33310
cycle              1000000:bit_error_cnt[          3]=               34770
cycle              1000000:bit_error_cnt[          4]=               34805
cycle              1000000:bit_error_cnt[          5]=               32570
cycle              1000000:bit_error_cnt[          6]=               32293
cycle              1000000:bit_error_cnt[          7]=               32916
cycle              1000000:bit_error_cnt[          8]=               31205
cycle              1000000:bit_error_cnt[          9]=               30419
cycle              1000000:bit_error_cnt[         10]=               29524
cycle              1000000:bit_error_cnt[         11]=               29041
cycle              1000000:bit_error_cnt[         12]=               27504
cycle              1000000:bit_error_cnt[         13]=               23476
cycle              1000000:bit_error_cnt[         14]=               22064
cycle              1000000:bit_error_cnt[         15]=               20771
cycle              1000000:bit_error_cnt[         16]=               21921
cycle              1000000:bit_error_cnt[         17]=               21185
cycle              1000000:bit_error_cnt[         18]=               20504
cycle              1000000:bit_error_cnt[         19]=               21692
cycle              1000000:bit_error_cnt[         20]=               21385
cycle              1000000:bit_error_cnt[         21]=               18144
cycle              1000000:bit_error_cnt[         22]=               13370
cycle              1000000:bit_error_cnt[         23]=                5849
cycle              1000000:bit_error_cnt[         24]=                3550
cycle              1000000:bit_error_cnt[         25]=                2187
cycle              1000000:bit_error_cnt[         26]=                1535
cycle              1000000:bit_error_cnt[         27]=                 964
cycle              1000000:bit_error_cnt[         28]=                 779
cycle              1000000:bit_error_cnt[         29]=                 683
cycle              1000000:bit_error_cnt[         30]=                1100
cycle              1000000:bit_error_cnt[         31]=                 668
