cycle              1000000:bit_error_cnt[          0]=               43634
cycle              1000000:bit_error_cnt[          1]=               42316
cycle              1000000:bit_error_cnt[          2]=               42537
cycle              1000000:bit_error_cnt[          3]=               41960
cycle              1000000:bit_error_cnt[          4]=               41848
cycle              1000000:bit_error_cnt[          5]=               41838
cycle              1000000:bit_error_cnt[          6]=               41894
cycle              1000000:bit_error_cnt[          7]=               40105
cycle              1000000:bit_error_cnt[          8]=               38944
cycle              1000000:bit_error_cnt[          9]=               36872
cycle              1000000:bit_error_cnt[         10]=               36334
cycle              1000000:bit_error_cnt[         11]=               34073
cycle              1000000:bit_error_cnt[         12]=               32643
cycle              1000000:bit_error_cnt[         13]=               32024
cycle              1000000:bit_error_cnt[         14]=               32377
cycle              1000000:bit_error_cnt[         15]=               32415
cycle              1000000:bit_error_cnt[         16]=               32582
cycle              1000000:bit_error_cnt[         17]=               31734
cycle              1000000:bit_error_cnt[         18]=               32351
cycle              1000000:bit_error_cnt[         19]=               31563
cycle              1000000:bit_error_cnt[         20]=               32445
cycle              1000000:bit_error_cnt[         21]=               30857
cycle              1000000:bit_error_cnt[         22]=               30312
cycle              1000000:bit_error_cnt[         23]=               18638
cycle              1000000:bit_error_cnt[         24]=               11493
cycle              1000000:bit_error_cnt[         25]=                7404
cycle              1000000:bit_error_cnt[         26]=                5308
cycle              1000000:bit_error_cnt[         27]=                4708
cycle              1000000:bit_error_cnt[         28]=                5045
cycle              1000000:bit_error_cnt[         29]=                6344
cycle              1000000:bit_error_cnt[         30]=                3979
cycle              1000000:bit_error_cnt[         31]=                1863
