cycle              1000000:bit_error_cnt[          0]=               32945
cycle              1000000:bit_error_cnt[          1]=               33014
cycle              1000000:bit_error_cnt[          2]=               34062
cycle              1000000:bit_error_cnt[          3]=               35154
cycle              1000000:bit_error_cnt[          4]=               35240
cycle              1000000:bit_error_cnt[          5]=               33467
cycle              1000000:bit_error_cnt[          6]=               33197
cycle              1000000:bit_error_cnt[          7]=               33352
cycle              1000000:bit_error_cnt[          8]=               31525
cycle              1000000:bit_error_cnt[          9]=               30884
cycle              1000000:bit_error_cnt[         10]=               29821
cycle              1000000:bit_error_cnt[         11]=               29518
cycle              1000000:bit_error_cnt[         12]=               27879
cycle              1000000:bit_error_cnt[         13]=               23606
cycle              1000000:bit_error_cnt[         14]=               22544
cycle              1000000:bit_error_cnt[         15]=               21280
cycle              1000000:bit_error_cnt[         16]=               22515
cycle              1000000:bit_error_cnt[         17]=               21749
cycle              1000000:bit_error_cnt[         18]=               20762
cycle              1000000:bit_error_cnt[         19]=               21941
cycle              1000000:bit_error_cnt[         20]=               21593
cycle              1000000:bit_error_cnt[         21]=               18608
cycle              1000000:bit_error_cnt[         22]=               13178
cycle              1000000:bit_error_cnt[         23]=                6077
cycle              1000000:bit_error_cnt[         24]=                3619
cycle              1000000:bit_error_cnt[         25]=                2214
cycle              1000000:bit_error_cnt[         26]=                1578
cycle              1000000:bit_error_cnt[         27]=                 988
cycle              1000000:bit_error_cnt[         28]=                 775
cycle              1000000:bit_error_cnt[         29]=                 671
cycle              1000000:bit_error_cnt[         30]=                1123
cycle              1000000:bit_error_cnt[         31]=                 692
