cycle              1000000:bit_error_cnt[          0]=               42335
cycle              1000000:bit_error_cnt[          1]=               41550
cycle              1000000:bit_error_cnt[          2]=               42096
cycle              1000000:bit_error_cnt[          3]=               41272
cycle              1000000:bit_error_cnt[          4]=               40873
cycle              1000000:bit_error_cnt[          5]=               40727
cycle              1000000:bit_error_cnt[          6]=               41072
cycle              1000000:bit_error_cnt[          7]=               39089
cycle              1000000:bit_error_cnt[          8]=               37807
cycle              1000000:bit_error_cnt[          9]=               36316
cycle              1000000:bit_error_cnt[         10]=               34667
cycle              1000000:bit_error_cnt[         11]=               33351
cycle              1000000:bit_error_cnt[         12]=               31739
cycle              1000000:bit_error_cnt[         13]=               31683
cycle              1000000:bit_error_cnt[         14]=               32079
cycle              1000000:bit_error_cnt[         15]=               32152
cycle              1000000:bit_error_cnt[         16]=               31922
cycle              1000000:bit_error_cnt[         17]=               31351
cycle              1000000:bit_error_cnt[         18]=               31909
cycle              1000000:bit_error_cnt[         19]=               31079
cycle              1000000:bit_error_cnt[         20]=               30681
cycle              1000000:bit_error_cnt[         21]=               31203
cycle              1000000:bit_error_cnt[         22]=               28766
cycle              1000000:bit_error_cnt[         23]=               17659
cycle              1000000:bit_error_cnt[         24]=               10576
cycle              1000000:bit_error_cnt[         25]=                6755
cycle              1000000:bit_error_cnt[         26]=                4728
cycle              1000000:bit_error_cnt[         27]=                3355
cycle              1000000:bit_error_cnt[         28]=                3463
cycle              1000000:bit_error_cnt[         29]=                5074
cycle              1000000:bit_error_cnt[         30]=                3353
cycle              1000000:bit_error_cnt[         31]=                1301
