cycle              1000000:bit_error_cnt[          0]=              607003
cycle              1000000:bit_error_cnt[          1]=               34375
cycle              1000000:bit_error_cnt[          2]=               34217
cycle              1000000:bit_error_cnt[          3]=               34431
cycle              1000000:bit_error_cnt[          4]=               34358
cycle              1000000:bit_error_cnt[          5]=               33795
cycle              1000000:bit_error_cnt[          6]=               34453
cycle              1000000:bit_error_cnt[          7]=               33244
cycle              1000000:bit_error_cnt[          8]=               34249
cycle              1000000:bit_error_cnt[          9]=               32933
cycle              1000000:bit_error_cnt[         10]=               33011
cycle              1000000:bit_error_cnt[         11]=               32826
cycle              1000000:bit_error_cnt[         12]=               32289
cycle              1000000:bit_error_cnt[         13]=               32247
cycle              1000000:bit_error_cnt[         14]=               32311
cycle              1000000:bit_error_cnt[         15]=               33029
cycle              1000000:bit_error_cnt[         16]=               32992
cycle              1000000:bit_error_cnt[         17]=               33129
cycle              1000000:bit_error_cnt[         18]=               32145
cycle              1000000:bit_error_cnt[         19]=               32420
cycle              1000000:bit_error_cnt[         20]=               31797
cycle              1000000:bit_error_cnt[         21]=               30703
cycle              1000000:bit_error_cnt[         22]=               27808
cycle              1000000:bit_error_cnt[         23]=              251802
cycle              1000000:bit_error_cnt[         24]=              251886
cycle              1000000:bit_error_cnt[         25]=              251320
cycle              1000000:bit_error_cnt[         26]=              252808
cycle              1000000:bit_error_cnt[         27]=              250419
cycle              1000000:bit_error_cnt[         28]=              250552
cycle              1000000:bit_error_cnt[         29]=              250090
cycle              1000000:bit_error_cnt[         30]=              251193
cycle              1000000:bit_error_cnt[         31]=              294055
