cycle              1000000:bit_error_cnt[          0]=               14456
cycle              1000000:bit_error_cnt[          1]=               15243
cycle              1000000:bit_error_cnt[          2]=               15745
cycle              1000000:bit_error_cnt[          3]=               17878
cycle              1000000:bit_error_cnt[          4]=               19451
cycle              1000000:bit_error_cnt[          5]=               17331
cycle              1000000:bit_error_cnt[          6]=               16497
cycle              1000000:bit_error_cnt[          7]=               17135
cycle              1000000:bit_error_cnt[          8]=               16648
cycle              1000000:bit_error_cnt[          9]=               18100
cycle              1000000:bit_error_cnt[         10]=               18024
cycle              1000000:bit_error_cnt[         11]=               18198
cycle              1000000:bit_error_cnt[         12]=               17248
cycle              1000000:bit_error_cnt[         13]=               12634
cycle              1000000:bit_error_cnt[         14]=               10137
cycle              1000000:bit_error_cnt[         15]=                8159
cycle              1000000:bit_error_cnt[         16]=                8374
cycle              1000000:bit_error_cnt[         17]=                8725
cycle              1000000:bit_error_cnt[         18]=                9110
cycle              1000000:bit_error_cnt[         19]=               10735
cycle              1000000:bit_error_cnt[         20]=                9300
cycle              1000000:bit_error_cnt[         21]=                6466
cycle              1000000:bit_error_cnt[         22]=                3498
cycle              1000000:bit_error_cnt[         23]=                1435
cycle              1000000:bit_error_cnt[         24]=                 817
cycle              1000000:bit_error_cnt[         25]=                 482
cycle              1000000:bit_error_cnt[         26]=                 324
cycle              1000000:bit_error_cnt[         27]=                 216
cycle              1000000:bit_error_cnt[         28]=                 158
cycle              1000000:bit_error_cnt[         29]=                 132
cycle              1000000:bit_error_cnt[         30]=                 117
cycle              1000000:bit_error_cnt[         31]=                  47
