cycle              1000000:bit_error_cnt[          0]=              510645
cycle              1000000:bit_error_cnt[          1]=              105445
cycle              1000000:bit_error_cnt[          2]=              106165
cycle              1000000:bit_error_cnt[          3]=              114193
cycle              1000000:bit_error_cnt[          4]=              108520
cycle              1000000:bit_error_cnt[          5]=              105641
cycle              1000000:bit_error_cnt[          6]=              105197
cycle              1000000:bit_error_cnt[          7]=              104819
cycle              1000000:bit_error_cnt[          8]=              101609
cycle              1000000:bit_error_cnt[          9]=              100454
cycle              1000000:bit_error_cnt[         10]=               98600
cycle              1000000:bit_error_cnt[         11]=               96910
cycle              1000000:bit_error_cnt[         12]=               83664
cycle              1000000:bit_error_cnt[         13]=               83554
cycle              1000000:bit_error_cnt[         14]=               81459
cycle              1000000:bit_error_cnt[         15]=               88166
cycle              1000000:bit_error_cnt[         16]=               91374
cycle              1000000:bit_error_cnt[         17]=               91974
cycle              1000000:bit_error_cnt[         18]=               98895
cycle              1000000:bit_error_cnt[         19]=              100059
cycle              1000000:bit_error_cnt[         20]=               93780
cycle              1000000:bit_error_cnt[         21]=               90185
cycle              1000000:bit_error_cnt[         22]=               87847
cycle              1000000:bit_error_cnt[         23]=              112470
cycle              1000000:bit_error_cnt[         24]=              111722
cycle              1000000:bit_error_cnt[         25]=              115148
cycle              1000000:bit_error_cnt[         26]=              105333
cycle              1000000:bit_error_cnt[         27]=              110340
cycle              1000000:bit_error_cnt[         28]=              108515
cycle              1000000:bit_error_cnt[         29]=              109734
cycle              1000000:bit_error_cnt[         30]=              111939
cycle              1000000:bit_error_cnt[         31]=              186385
