cycle              1000000:bit_error_cnt[          0]=             1000000
cycle              1000000:bit_error_cnt[          1]=               23380
cycle              1000000:bit_error_cnt[          2]=               23250
cycle              1000000:bit_error_cnt[          3]=               23408
cycle              1000000:bit_error_cnt[          4]=               23336
cycle              1000000:bit_error_cnt[          5]=               23398
cycle              1000000:bit_error_cnt[          6]=               23451
cycle              1000000:bit_error_cnt[          7]=               23424
cycle              1000000:bit_error_cnt[          8]=               23366
cycle              1000000:bit_error_cnt[          9]=               23296
cycle              1000000:bit_error_cnt[         10]=               23355
cycle              1000000:bit_error_cnt[         11]=               23222
cycle              1000000:bit_error_cnt[         12]=               23332
cycle              1000000:bit_error_cnt[         13]=               23353
cycle              1000000:bit_error_cnt[         14]=               23401
cycle              1000000:bit_error_cnt[         15]=               23185
cycle              1000000:bit_error_cnt[         16]=               23421
cycle              1000000:bit_error_cnt[         17]=               23366
cycle              1000000:bit_error_cnt[         18]=               23207
cycle              1000000:bit_error_cnt[         19]=               22945
cycle              1000000:bit_error_cnt[         20]=               22551
cycle              1000000:bit_error_cnt[         21]=               21349
cycle              1000000:bit_error_cnt[         22]=               19524
cycle              1000000:bit_error_cnt[         23]=              217750
cycle              1000000:bit_error_cnt[         24]=              217669
cycle              1000000:bit_error_cnt[         25]=              217677
cycle              1000000:bit_error_cnt[         26]=              217742
cycle              1000000:bit_error_cnt[         27]=              217502
cycle              1000000:bit_error_cnt[         28]=              217841
cycle              1000000:bit_error_cnt[         29]=              217570
cycle              1000000:bit_error_cnt[         30]=              217736
cycle              1000000:bit_error_cnt[         31]=              218182
