cycle              1000000:bit_error_cnt[          0]=               34962
cycle              1000000:bit_error_cnt[          1]=               34993
cycle              1000000:bit_error_cnt[          2]=               35696
cycle              1000000:bit_error_cnt[          3]=               36634
cycle              1000000:bit_error_cnt[          4]=               36728
cycle              1000000:bit_error_cnt[          5]=               34858
cycle              1000000:bit_error_cnt[          6]=               34637
cycle              1000000:bit_error_cnt[          7]=               34458
cycle              1000000:bit_error_cnt[          8]=               32503
cycle              1000000:bit_error_cnt[          9]=               31834
cycle              1000000:bit_error_cnt[         10]=               31004
cycle              1000000:bit_error_cnt[         11]=               30279
cycle              1000000:bit_error_cnt[         12]=               28617
cycle              1000000:bit_error_cnt[         13]=               24491
cycle              1000000:bit_error_cnt[         14]=               23450
cycle              1000000:bit_error_cnt[         15]=               22358
cycle              1000000:bit_error_cnt[         16]=               23612
cycle              1000000:bit_error_cnt[         17]=               22840
cycle              1000000:bit_error_cnt[         18]=               21627
cycle              1000000:bit_error_cnt[         19]=               23284
cycle              1000000:bit_error_cnt[         20]=               23212
cycle              1000000:bit_error_cnt[         21]=               20199
cycle              1000000:bit_error_cnt[         22]=               14934
cycle              1000000:bit_error_cnt[         23]=                6770
cycle              1000000:bit_error_cnt[         24]=                4026
cycle              1000000:bit_error_cnt[         25]=                2449
cycle              1000000:bit_error_cnt[         26]=                1654
cycle              1000000:bit_error_cnt[         27]=                1025
cycle              1000000:bit_error_cnt[         28]=                 784
cycle              1000000:bit_error_cnt[         29]=                 671
cycle              1000000:bit_error_cnt[         30]=                1374
cycle              1000000:bit_error_cnt[         31]=                 683
