cycle              1000000:bit_error_cnt[          0]=              491178
cycle              1000000:bit_error_cnt[          1]=              138915
cycle              1000000:bit_error_cnt[          2]=              137978
cycle              1000000:bit_error_cnt[          3]=              138114
cycle              1000000:bit_error_cnt[          4]=              138980
cycle              1000000:bit_error_cnt[          5]=              137858
cycle              1000000:bit_error_cnt[          6]=              134570
cycle              1000000:bit_error_cnt[          7]=              125725
cycle              1000000:bit_error_cnt[          8]=              126997
cycle              1000000:bit_error_cnt[          9]=              122800
cycle              1000000:bit_error_cnt[         10]=              119518
cycle              1000000:bit_error_cnt[         11]=              117375
cycle              1000000:bit_error_cnt[         12]=              114153
cycle              1000000:bit_error_cnt[         13]=              114993
cycle              1000000:bit_error_cnt[         14]=              117047
cycle              1000000:bit_error_cnt[         15]=              119802
cycle              1000000:bit_error_cnt[         16]=              107472
cycle              1000000:bit_error_cnt[         17]=              105711
cycle              1000000:bit_error_cnt[         18]=              107905
cycle              1000000:bit_error_cnt[         19]=              121225
cycle              1000000:bit_error_cnt[         20]=              111588
cycle              1000000:bit_error_cnt[         21]=              104321
cycle              1000000:bit_error_cnt[         22]=              108607
cycle              1000000:bit_error_cnt[         23]=              106802
cycle              1000000:bit_error_cnt[         24]=               90698
cycle              1000000:bit_error_cnt[         25]=               82324
cycle              1000000:bit_error_cnt[         26]=               79689
cycle              1000000:bit_error_cnt[         27]=               81483
cycle              1000000:bit_error_cnt[         28]=               82555
cycle              1000000:bit_error_cnt[         29]=               79952
cycle              1000000:bit_error_cnt[         30]=               81552
cycle              1000000:bit_error_cnt[         31]=              173678
