cycle              1000000:bit_error_cnt[          0]=               42007
cycle              1000000:bit_error_cnt[          1]=               41439
cycle              1000000:bit_error_cnt[          2]=               41939
cycle              1000000:bit_error_cnt[          3]=               41820
cycle              1000000:bit_error_cnt[          4]=               40840
cycle              1000000:bit_error_cnt[          5]=               40686
cycle              1000000:bit_error_cnt[          6]=               40899
cycle              1000000:bit_error_cnt[          7]=               39312
cycle              1000000:bit_error_cnt[          8]=               37392
cycle              1000000:bit_error_cnt[          9]=               36034
cycle              1000000:bit_error_cnt[         10]=               33904
cycle              1000000:bit_error_cnt[         11]=               33192
cycle              1000000:bit_error_cnt[         12]=               31805
cycle              1000000:bit_error_cnt[         13]=               30314
cycle              1000000:bit_error_cnt[         14]=               30692
cycle              1000000:bit_error_cnt[         15]=               31511
cycle              1000000:bit_error_cnt[         16]=               32208
cycle              1000000:bit_error_cnt[         17]=               31824
cycle              1000000:bit_error_cnt[         18]=               31338
cycle              1000000:bit_error_cnt[         19]=               31321
cycle              1000000:bit_error_cnt[         20]=               30251
cycle              1000000:bit_error_cnt[         21]=               29330
cycle              1000000:bit_error_cnt[         22]=               26053
cycle              1000000:bit_error_cnt[         23]=               13238
cycle              1000000:bit_error_cnt[         24]=                7984
cycle              1000000:bit_error_cnt[         25]=                5143
cycle              1000000:bit_error_cnt[         26]=                3501
cycle              1000000:bit_error_cnt[         27]=                2878
cycle              1000000:bit_error_cnt[         28]=                2261
cycle              1000000:bit_error_cnt[         29]=                3334
cycle              1000000:bit_error_cnt[         30]=                2621
cycle              1000000:bit_error_cnt[         31]=                1069
