cycle              1000000:bit_error_cnt[          0]=               40882
cycle              1000000:bit_error_cnt[          1]=               40625
cycle              1000000:bit_error_cnt[          2]=               41086
cycle              1000000:bit_error_cnt[          3]=               41294
cycle              1000000:bit_error_cnt[          4]=               40413
cycle              1000000:bit_error_cnt[          5]=               39908
cycle              1000000:bit_error_cnt[          6]=               39589
cycle              1000000:bit_error_cnt[          7]=               38403
cycle              1000000:bit_error_cnt[          8]=               36343
cycle              1000000:bit_error_cnt[          9]=               35446
cycle              1000000:bit_error_cnt[         10]=               33474
cycle              1000000:bit_error_cnt[         11]=               32594
cycle              1000000:bit_error_cnt[         12]=               30985
cycle              1000000:bit_error_cnt[         13]=               29751
cycle              1000000:bit_error_cnt[         14]=               30040
cycle              1000000:bit_error_cnt[         15]=               30491
cycle              1000000:bit_error_cnt[         16]=               30598
cycle              1000000:bit_error_cnt[         17]=               31129
cycle              1000000:bit_error_cnt[         18]=               30458
cycle              1000000:bit_error_cnt[         19]=               30272
cycle              1000000:bit_error_cnt[         20]=               29454
cycle              1000000:bit_error_cnt[         21]=               27227
cycle              1000000:bit_error_cnt[         22]=               22958
cycle              1000000:bit_error_cnt[         23]=               12010
cycle              1000000:bit_error_cnt[         24]=                6891
cycle              1000000:bit_error_cnt[         25]=                4208
cycle              1000000:bit_error_cnt[         26]=                2667
cycle              1000000:bit_error_cnt[         27]=                2166
cycle              1000000:bit_error_cnt[         28]=                1756
cycle              1000000:bit_error_cnt[         29]=                2332
cycle              1000000:bit_error_cnt[         30]=                1612
cycle              1000000:bit_error_cnt[         31]=                 568
