cycle              1000000:bit_error_cnt[          0]=              536947
cycle              1000000:bit_error_cnt[          1]=              120468
cycle              1000000:bit_error_cnt[          2]=              119079
cycle              1000000:bit_error_cnt[          3]=              117916
cycle              1000000:bit_error_cnt[          4]=              117037
cycle              1000000:bit_error_cnt[          5]=              116603
cycle              1000000:bit_error_cnt[          6]=              113782
cycle              1000000:bit_error_cnt[          7]=              109242
cycle              1000000:bit_error_cnt[          8]=              105705
cycle              1000000:bit_error_cnt[          9]=              101407
cycle              1000000:bit_error_cnt[         10]=              102521
cycle              1000000:bit_error_cnt[         11]=               99627
cycle              1000000:bit_error_cnt[         12]=               88142
cycle              1000000:bit_error_cnt[         13]=              102938
cycle              1000000:bit_error_cnt[         14]=               89167
cycle              1000000:bit_error_cnt[         15]=              100510
cycle              1000000:bit_error_cnt[         16]=               97432
cycle              1000000:bit_error_cnt[         17]=               89295
cycle              1000000:bit_error_cnt[         18]=               98315
cycle              1000000:bit_error_cnt[         19]=               96397
cycle              1000000:bit_error_cnt[         20]=               97589
cycle              1000000:bit_error_cnt[         21]=               90775
cycle              1000000:bit_error_cnt[         22]=               90711
cycle              1000000:bit_error_cnt[         23]=              119952
cycle              1000000:bit_error_cnt[         24]=              110323
cycle              1000000:bit_error_cnt[         25]=              108905
cycle              1000000:bit_error_cnt[         26]=              110033
cycle              1000000:bit_error_cnt[         27]=              109399
cycle              1000000:bit_error_cnt[         28]=              110444
cycle              1000000:bit_error_cnt[         29]=              107960
cycle              1000000:bit_error_cnt[         30]=              105566
cycle              1000000:bit_error_cnt[         31]=              178887
