cycle              1000000:bit_error_cnt[          0]=              611326
cycle              1000000:bit_error_cnt[          1]=               36130
cycle              1000000:bit_error_cnt[          2]=               36052
cycle              1000000:bit_error_cnt[          3]=               35366
cycle              1000000:bit_error_cnt[          4]=               35231
cycle              1000000:bit_error_cnt[          5]=               35344
cycle              1000000:bit_error_cnt[          6]=               36182
cycle              1000000:bit_error_cnt[          7]=               34806
cycle              1000000:bit_error_cnt[          8]=               34869
cycle              1000000:bit_error_cnt[          9]=               35046
cycle              1000000:bit_error_cnt[         10]=               35286
cycle              1000000:bit_error_cnt[         11]=               35446
cycle              1000000:bit_error_cnt[         12]=               34449
cycle              1000000:bit_error_cnt[         13]=               33916
cycle              1000000:bit_error_cnt[         14]=               33862
cycle              1000000:bit_error_cnt[         15]=               34822
cycle              1000000:bit_error_cnt[         16]=               34498
cycle              1000000:bit_error_cnt[         17]=               34281
cycle              1000000:bit_error_cnt[         18]=               33374
cycle              1000000:bit_error_cnt[         19]=               33275
cycle              1000000:bit_error_cnt[         20]=               32330
cycle              1000000:bit_error_cnt[         21]=               31340
cycle              1000000:bit_error_cnt[         22]=               28948
cycle              1000000:bit_error_cnt[         23]=              253196
cycle              1000000:bit_error_cnt[         24]=              254710
cycle              1000000:bit_error_cnt[         25]=              250705
cycle              1000000:bit_error_cnt[         26]=              254183
cycle              1000000:bit_error_cnt[         27]=              249994
cycle              1000000:bit_error_cnt[         28]=              251760
cycle              1000000:bit_error_cnt[         29]=              249334
cycle              1000000:bit_error_cnt[         30]=              251626
cycle              1000000:bit_error_cnt[         31]=              289235
