cycle              1000000:bit_error_cnt[          0]=               22998
cycle              1000000:bit_error_cnt[          1]=               23660
cycle              1000000:bit_error_cnt[          2]=               25057
cycle              1000000:bit_error_cnt[          3]=               27522
cycle              1000000:bit_error_cnt[          4]=               28404
cycle              1000000:bit_error_cnt[          5]=               25875
cycle              1000000:bit_error_cnt[          6]=               25438
cycle              1000000:bit_error_cnt[          7]=               26134
cycle              1000000:bit_error_cnt[          8]=               24846
cycle              1000000:bit_error_cnt[          9]=               25299
cycle              1000000:bit_error_cnt[         10]=               24674
cycle              1000000:bit_error_cnt[         11]=               24342
cycle              1000000:bit_error_cnt[         12]=               22670
cycle              1000000:bit_error_cnt[         13]=               17438
cycle              1000000:bit_error_cnt[         14]=               15392
cycle              1000000:bit_error_cnt[         15]=               13655
cycle              1000000:bit_error_cnt[         16]=               14040
cycle              1000000:bit_error_cnt[         17]=               13970
cycle              1000000:bit_error_cnt[         18]=               13759
cycle              1000000:bit_error_cnt[         19]=               15351
cycle              1000000:bit_error_cnt[         20]=               15030
cycle              1000000:bit_error_cnt[         21]=               11819
cycle              1000000:bit_error_cnt[         22]=                6629
cycle              1000000:bit_error_cnt[         23]=                2865
cycle              1000000:bit_error_cnt[         24]=                1613
cycle              1000000:bit_error_cnt[         25]=                 869
cycle              1000000:bit_error_cnt[         26]=                 533
cycle              1000000:bit_error_cnt[         27]=                 340
cycle              1000000:bit_error_cnt[         28]=                 238
cycle              1000000:bit_error_cnt[         29]=                 193
cycle              1000000:bit_error_cnt[         30]=                 215
cycle              1000000:bit_error_cnt[         31]=                 127
