cycle              1000000:bit_error_cnt[          0]=              526050
cycle              1000000:bit_error_cnt[          1]=              103867
cycle              1000000:bit_error_cnt[          2]=              103743
cycle              1000000:bit_error_cnt[          3]=              101811
cycle              1000000:bit_error_cnt[          4]=              101438
cycle              1000000:bit_error_cnt[          5]=              101278
cycle              1000000:bit_error_cnt[          6]=              102016
cycle              1000000:bit_error_cnt[          7]=              101866
cycle              1000000:bit_error_cnt[          8]=               96560
cycle              1000000:bit_error_cnt[          9]=               95835
cycle              1000000:bit_error_cnt[         10]=               93643
cycle              1000000:bit_error_cnt[         11]=               91728
cycle              1000000:bit_error_cnt[         12]=               82663
cycle              1000000:bit_error_cnt[         13]=               79324
cycle              1000000:bit_error_cnt[         14]=               76903
cycle              1000000:bit_error_cnt[         15]=               85772
cycle              1000000:bit_error_cnt[         16]=               83704
cycle              1000000:bit_error_cnt[         17]=               85482
cycle              1000000:bit_error_cnt[         18]=               93943
cycle              1000000:bit_error_cnt[         19]=               90027
cycle              1000000:bit_error_cnt[         20]=               92857
cycle              1000000:bit_error_cnt[         21]=               77057
cycle              1000000:bit_error_cnt[         22]=               85892
cycle              1000000:bit_error_cnt[         23]=              115377
cycle              1000000:bit_error_cnt[         24]=              109099
cycle              1000000:bit_error_cnt[         25]=              118040
cycle              1000000:bit_error_cnt[         26]=              109241
cycle              1000000:bit_error_cnt[         27]=              115881
cycle              1000000:bit_error_cnt[         28]=              114910
cycle              1000000:bit_error_cnt[         29]=              112271
cycle              1000000:bit_error_cnt[         30]=              110758
cycle              1000000:bit_error_cnt[         31]=              180658
