cycle              1000000:bit_error_cnt[          0]=              482207
cycle              1000000:bit_error_cnt[          1]=              139118
cycle              1000000:bit_error_cnt[          2]=              138127
cycle              1000000:bit_error_cnt[          3]=              137686
cycle              1000000:bit_error_cnt[          4]=              138312
cycle              1000000:bit_error_cnt[          5]=              138784
cycle              1000000:bit_error_cnt[          6]=              135303
cycle              1000000:bit_error_cnt[          7]=              129205
cycle              1000000:bit_error_cnt[          8]=              131839
cycle              1000000:bit_error_cnt[          9]=              129849
cycle              1000000:bit_error_cnt[         10]=              124236
cycle              1000000:bit_error_cnt[         11]=              118578
cycle              1000000:bit_error_cnt[         12]=              117077
cycle              1000000:bit_error_cnt[         13]=              116625
cycle              1000000:bit_error_cnt[         14]=              117472
cycle              1000000:bit_error_cnt[         15]=              118209
cycle              1000000:bit_error_cnt[         16]=              111003
cycle              1000000:bit_error_cnt[         17]=              107893
cycle              1000000:bit_error_cnt[         18]=              109175
cycle              1000000:bit_error_cnt[         19]=              118061
cycle              1000000:bit_error_cnt[         20]=              114639
cycle              1000000:bit_error_cnt[         21]=              117708
cycle              1000000:bit_error_cnt[         22]=              109534
cycle              1000000:bit_error_cnt[         23]=              107744
cycle              1000000:bit_error_cnt[         24]=               91921
cycle              1000000:bit_error_cnt[         25]=               82096
cycle              1000000:bit_error_cnt[         26]=               78417
cycle              1000000:bit_error_cnt[         27]=               78209
cycle              1000000:bit_error_cnt[         28]=               81778
cycle              1000000:bit_error_cnt[         29]=               79585
cycle              1000000:bit_error_cnt[         30]=               81261
cycle              1000000:bit_error_cnt[         31]=              173902
