cycle              1000000:bit_error_cnt[          0]=                 207
cycle              1000000:bit_error_cnt[          1]=                 156
cycle              1000000:bit_error_cnt[          2]=                 122
cycle              1000000:bit_error_cnt[          3]=                 301
cycle              1000000:bit_error_cnt[          4]=                 478
cycle              1000000:bit_error_cnt[          5]=                 497
cycle              1000000:bit_error_cnt[          6]=                 397
cycle              1000000:bit_error_cnt[          7]=                 301
cycle              1000000:bit_error_cnt[          8]=                 197
cycle              1000000:bit_error_cnt[          9]=                 260
cycle              1000000:bit_error_cnt[         10]=                 304
cycle              1000000:bit_error_cnt[         11]=                 712
cycle              1000000:bit_error_cnt[         12]=                1087
cycle              1000000:bit_error_cnt[         13]=                 881
cycle              1000000:bit_error_cnt[         14]=                 601
cycle              1000000:bit_error_cnt[         15]=                 418
cycle              1000000:bit_error_cnt[         16]=                 381
cycle              1000000:bit_error_cnt[         17]=                 313
cycle              1000000:bit_error_cnt[         18]=                 132
cycle              1000000:bit_error_cnt[         19]=                 138
cycle              1000000:bit_error_cnt[         20]=                 115
cycle              1000000:bit_error_cnt[         21]=                  50
cycle              1000000:bit_error_cnt[         22]=                  21
cycle              1000000:bit_error_cnt[         23]=                  12
cycle              1000000:bit_error_cnt[         24]=                   6
cycle              1000000:bit_error_cnt[         25]=                   5
cycle              1000000:bit_error_cnt[         26]=                   1
cycle              1000000:bit_error_cnt[         27]=                   0
cycle              1000000:bit_error_cnt[         28]=                   0
cycle              1000000:bit_error_cnt[         29]=                   0
cycle              1000000:bit_error_cnt[         30]=                   0
cycle              1000000:bit_error_cnt[         31]=                   0
