cycle              1000000:bit_error_cnt[          0]=               42917
cycle              1000000:bit_error_cnt[          1]=               42176
cycle              1000000:bit_error_cnt[          2]=               42326
cycle              1000000:bit_error_cnt[          3]=               41818
cycle              1000000:bit_error_cnt[          4]=               41252
cycle              1000000:bit_error_cnt[          5]=               41079
cycle              1000000:bit_error_cnt[          6]=               41332
cycle              1000000:bit_error_cnt[          7]=               39688
cycle              1000000:bit_error_cnt[          8]=               38222
cycle              1000000:bit_error_cnt[          9]=               36742
cycle              1000000:bit_error_cnt[         10]=               35119
cycle              1000000:bit_error_cnt[         11]=               34084
cycle              1000000:bit_error_cnt[         12]=               32558
cycle              1000000:bit_error_cnt[         13]=               31557
cycle              1000000:bit_error_cnt[         14]=               31985
cycle              1000000:bit_error_cnt[         15]=               33206
cycle              1000000:bit_error_cnt[         16]=               32448
cycle              1000000:bit_error_cnt[         17]=               33052
cycle              1000000:bit_error_cnt[         18]=               32746
cycle              1000000:bit_error_cnt[         19]=               31860
cycle              1000000:bit_error_cnt[         20]=               30763
cycle              1000000:bit_error_cnt[         21]=               30338
cycle              1000000:bit_error_cnt[         22]=               27675
cycle              1000000:bit_error_cnt[         23]=               16868
cycle              1000000:bit_error_cnt[         24]=               10424
cycle              1000000:bit_error_cnt[         25]=                6835
cycle              1000000:bit_error_cnt[         26]=                4867
cycle              1000000:bit_error_cnt[         27]=                3834
cycle              1000000:bit_error_cnt[         28]=                3310
cycle              1000000:bit_error_cnt[         29]=                4954
cycle              1000000:bit_error_cnt[         30]=                2986
cycle              1000000:bit_error_cnt[         31]=                1423
