cycle              1000000:bit_error_cnt[          0]=                9643
cycle              1000000:bit_error_cnt[          1]=                9943
cycle              1000000:bit_error_cnt[          2]=               10039
cycle              1000000:bit_error_cnt[          3]=               12306
cycle              1000000:bit_error_cnt[          4]=               14396
cycle              1000000:bit_error_cnt[          5]=               12883
cycle              1000000:bit_error_cnt[          6]=               12359
cycle              1000000:bit_error_cnt[          7]=               13388
cycle              1000000:bit_error_cnt[          8]=               12832
cycle              1000000:bit_error_cnt[          9]=               13796
cycle              1000000:bit_error_cnt[         10]=               13459
cycle              1000000:bit_error_cnt[         11]=               13926
cycle              1000000:bit_error_cnt[         12]=               13189
cycle              1000000:bit_error_cnt[         13]=                9266
cycle              1000000:bit_error_cnt[         14]=                6712
cycle              1000000:bit_error_cnt[         15]=                4931
cycle              1000000:bit_error_cnt[         16]=                4939
cycle              1000000:bit_error_cnt[         17]=                4753
cycle              1000000:bit_error_cnt[         18]=                5502
cycle              1000000:bit_error_cnt[         19]=                7705
cycle              1000000:bit_error_cnt[         20]=                6978
cycle              1000000:bit_error_cnt[         21]=                3908
cycle              1000000:bit_error_cnt[         22]=                2139
cycle              1000000:bit_error_cnt[         23]=                 825
cycle              1000000:bit_error_cnt[         24]=                 487
cycle              1000000:bit_error_cnt[         25]=                 293
cycle              1000000:bit_error_cnt[         26]=                 197
cycle              1000000:bit_error_cnt[         27]=                 142
cycle              1000000:bit_error_cnt[         28]=                 109
cycle              1000000:bit_error_cnt[         29]=                  98
cycle              1000000:bit_error_cnt[         30]=                  89
cycle              1000000:bit_error_cnt[         31]=                  35
