cycle              1000000:bit_error_cnt[          0]=               33712
cycle              1000000:bit_error_cnt[          1]=               33851
cycle              1000000:bit_error_cnt[          2]=               34491
cycle              1000000:bit_error_cnt[          3]=               35754
cycle              1000000:bit_error_cnt[          4]=               35673
cycle              1000000:bit_error_cnt[          5]=               33453
cycle              1000000:bit_error_cnt[          6]=               33206
cycle              1000000:bit_error_cnt[          7]=               33570
cycle              1000000:bit_error_cnt[          8]=               31933
cycle              1000000:bit_error_cnt[          9]=               31229
cycle              1000000:bit_error_cnt[         10]=               30210
cycle              1000000:bit_error_cnt[         11]=               29705
cycle              1000000:bit_error_cnt[         12]=               28208
cycle              1000000:bit_error_cnt[         13]=               24392
cycle              1000000:bit_error_cnt[         14]=               23555
cycle              1000000:bit_error_cnt[         15]=               22364
cycle              1000000:bit_error_cnt[         16]=               23393
cycle              1000000:bit_error_cnt[         17]=               22803
cycle              1000000:bit_error_cnt[         18]=               21829
cycle              1000000:bit_error_cnt[         19]=               22476
cycle              1000000:bit_error_cnt[         20]=               22447
cycle              1000000:bit_error_cnt[         21]=               19380
cycle              1000000:bit_error_cnt[         22]=               13830
cycle              1000000:bit_error_cnt[         23]=                6203
cycle              1000000:bit_error_cnt[         24]=                3790
cycle              1000000:bit_error_cnt[         25]=                2445
cycle              1000000:bit_error_cnt[         26]=                1808
cycle              1000000:bit_error_cnt[         27]=                1256
cycle              1000000:bit_error_cnt[         28]=                1047
cycle              1000000:bit_error_cnt[         29]=                 996
cycle              1000000:bit_error_cnt[         30]=                1161
cycle              1000000:bit_error_cnt[         31]=                 626
