cycle              1000000:bit_error_cnt[          0]=               76977
cycle              1000000:bit_error_cnt[          1]=               72900
cycle              1000000:bit_error_cnt[          2]=               73021
cycle              1000000:bit_error_cnt[          3]=               72774
cycle              1000000:bit_error_cnt[          4]=               73265
cycle              1000000:bit_error_cnt[          5]=               73109
cycle              1000000:bit_error_cnt[          6]=               71151
cycle              1000000:bit_error_cnt[          7]=               69027
cycle              1000000:bit_error_cnt[          8]=               66837
cycle              1000000:bit_error_cnt[          9]=               65704
cycle              1000000:bit_error_cnt[         10]=               62938
cycle              1000000:bit_error_cnt[         11]=               60628
cycle              1000000:bit_error_cnt[         12]=               58630
cycle              1000000:bit_error_cnt[         13]=               57733
cycle              1000000:bit_error_cnt[         14]=               56871
cycle              1000000:bit_error_cnt[         15]=               58204
cycle              1000000:bit_error_cnt[         16]=               55265
cycle              1000000:bit_error_cnt[         17]=               54413
cycle              1000000:bit_error_cnt[         18]=               55851
cycle              1000000:bit_error_cnt[         19]=               55408
cycle              1000000:bit_error_cnt[         20]=               58739
cycle              1000000:bit_error_cnt[         21]=               56862
cycle              1000000:bit_error_cnt[         22]=               54003
cycle              1000000:bit_error_cnt[         23]=               43008
cycle              1000000:bit_error_cnt[         24]=               32829
cycle              1000000:bit_error_cnt[         25]=               27026
cycle              1000000:bit_error_cnt[         26]=               25647
cycle              1000000:bit_error_cnt[         27]=               25952
cycle              1000000:bit_error_cnt[         28]=               28923
cycle              1000000:bit_error_cnt[         29]=               28587
cycle              1000000:bit_error_cnt[         30]=               21492
cycle              1000000:bit_error_cnt[         31]=                4816
