cycle              1000000:bit_error_cnt[          0]=               37439
cycle              1000000:bit_error_cnt[          1]=               37074
cycle              1000000:bit_error_cnt[          2]=               37280
cycle              1000000:bit_error_cnt[          3]=               37904
cycle              1000000:bit_error_cnt[          4]=               37927
cycle              1000000:bit_error_cnt[          5]=               36768
cycle              1000000:bit_error_cnt[          6]=               36398
cycle              1000000:bit_error_cnt[          7]=               36008
cycle              1000000:bit_error_cnt[          8]=               34265
cycle              1000000:bit_error_cnt[          9]=               33231
cycle              1000000:bit_error_cnt[         10]=               31944
cycle              1000000:bit_error_cnt[         11]=               31260
cycle              1000000:bit_error_cnt[         12]=               29776
cycle              1000000:bit_error_cnt[         13]=               26494
cycle              1000000:bit_error_cnt[         14]=               25653
cycle              1000000:bit_error_cnt[         15]=               25184
cycle              1000000:bit_error_cnt[         16]=               26172
cycle              1000000:bit_error_cnt[         17]=               25836
cycle              1000000:bit_error_cnt[         18]=               24523
cycle              1000000:bit_error_cnt[         19]=               25413
cycle              1000000:bit_error_cnt[         20]=               25426
cycle              1000000:bit_error_cnt[         21]=               22392
cycle              1000000:bit_error_cnt[         22]=               16825
cycle              1000000:bit_error_cnt[         23]=                7699
cycle              1000000:bit_error_cnt[         24]=                4737
cycle              1000000:bit_error_cnt[         25]=                3132
cycle              1000000:bit_error_cnt[         26]=                2258
cycle              1000000:bit_error_cnt[         27]=                1655
cycle              1000000:bit_error_cnt[         28]=                1377
cycle              1000000:bit_error_cnt[         29]=                1336
cycle              1000000:bit_error_cnt[         30]=                1337
cycle              1000000:bit_error_cnt[         31]=                 930
