cycle              1000000:bit_error_cnt[          0]=               41912
cycle              1000000:bit_error_cnt[          1]=               41523
cycle              1000000:bit_error_cnt[          2]=               41872
cycle              1000000:bit_error_cnt[          3]=               41708
cycle              1000000:bit_error_cnt[          4]=               41096
cycle              1000000:bit_error_cnt[          5]=               40743
cycle              1000000:bit_error_cnt[          6]=               40823
cycle              1000000:bit_error_cnt[          7]=               39414
cycle              1000000:bit_error_cnt[          8]=               37685
cycle              1000000:bit_error_cnt[          9]=               36336
cycle              1000000:bit_error_cnt[         10]=               34289
cycle              1000000:bit_error_cnt[         11]=               33784
cycle              1000000:bit_error_cnt[         12]=               32364
cycle              1000000:bit_error_cnt[         13]=               31364
cycle              1000000:bit_error_cnt[         14]=               31536
cycle              1000000:bit_error_cnt[         15]=               32691
cycle              1000000:bit_error_cnt[         16]=               32376
cycle              1000000:bit_error_cnt[         17]=               32077
cycle              1000000:bit_error_cnt[         18]=               32026
cycle              1000000:bit_error_cnt[         19]=               31696
cycle              1000000:bit_error_cnt[         20]=               30818
cycle              1000000:bit_error_cnt[         21]=               30044
cycle              1000000:bit_error_cnt[         22]=               26273
cycle              1000000:bit_error_cnt[         23]=               14192
cycle              1000000:bit_error_cnt[         24]=                8699
cycle              1000000:bit_error_cnt[         25]=                5764
cycle              1000000:bit_error_cnt[         26]=                4022
cycle              1000000:bit_error_cnt[         27]=                3302
cycle              1000000:bit_error_cnt[         28]=                2285
cycle              1000000:bit_error_cnt[         29]=                4264
cycle              1000000:bit_error_cnt[         30]=                2510
cycle              1000000:bit_error_cnt[         31]=                1034
