cycle              1000000:bit_error_cnt[          0]=                2034
cycle              1000000:bit_error_cnt[          1]=                2394
cycle              1000000:bit_error_cnt[          2]=                2107
cycle              1000000:bit_error_cnt[          3]=                2346
cycle              1000000:bit_error_cnt[          4]=                2483
cycle              1000000:bit_error_cnt[          5]=                1656
cycle              1000000:bit_error_cnt[          6]=                1741
cycle              1000000:bit_error_cnt[          7]=                1897
cycle              1000000:bit_error_cnt[          8]=                1679
cycle              1000000:bit_error_cnt[          9]=                2776
cycle              1000000:bit_error_cnt[         10]=                2742
cycle              1000000:bit_error_cnt[         11]=                3735
cycle              1000000:bit_error_cnt[         12]=                3722
cycle              1000000:bit_error_cnt[         13]=                2329
cycle              1000000:bit_error_cnt[         14]=                1685
cycle              1000000:bit_error_cnt[         15]=                1283
cycle              1000000:bit_error_cnt[         16]=                1605
cycle              1000000:bit_error_cnt[         17]=                1275
cycle              1000000:bit_error_cnt[         18]=                 932
cycle              1000000:bit_error_cnt[         19]=                1846
cycle              1000000:bit_error_cnt[         20]=                1685
cycle              1000000:bit_error_cnt[         21]=                 721
cycle              1000000:bit_error_cnt[         22]=                 303
cycle              1000000:bit_error_cnt[         23]=                 150
cycle              1000000:bit_error_cnt[         24]=                 152
cycle              1000000:bit_error_cnt[         25]=                 136
cycle              1000000:bit_error_cnt[         26]=                 122
cycle              1000000:bit_error_cnt[         27]=                 114
cycle              1000000:bit_error_cnt[         28]=                 110
cycle              1000000:bit_error_cnt[         29]=                 110
cycle              1000000:bit_error_cnt[         30]=                 109
cycle              1000000:bit_error_cnt[         31]=                  70
