cycle              1000000:bit_error_cnt[          0]=               17887
cycle              1000000:bit_error_cnt[          1]=               18939
cycle              1000000:bit_error_cnt[          2]=               19932
cycle              1000000:bit_error_cnt[          3]=               21966
cycle              1000000:bit_error_cnt[          4]=               23212
cycle              1000000:bit_error_cnt[          5]=               21049
cycle              1000000:bit_error_cnt[          6]=               20551
cycle              1000000:bit_error_cnt[          7]=               21225
cycle              1000000:bit_error_cnt[          8]=               20310
cycle              1000000:bit_error_cnt[          9]=               21350
cycle              1000000:bit_error_cnt[         10]=               21211
cycle              1000000:bit_error_cnt[         11]=               21093
cycle              1000000:bit_error_cnt[         12]=               20037
cycle              1000000:bit_error_cnt[         13]=               15061
cycle              1000000:bit_error_cnt[         14]=               12598
cycle              1000000:bit_error_cnt[         15]=               10536
cycle              1000000:bit_error_cnt[         16]=               10892
cycle              1000000:bit_error_cnt[         17]=               10904
cycle              1000000:bit_error_cnt[         18]=               10990
cycle              1000000:bit_error_cnt[         19]=               12509
cycle              1000000:bit_error_cnt[         20]=               11176
cycle              1000000:bit_error_cnt[         21]=                8449
cycle              1000000:bit_error_cnt[         22]=                4661
cycle              1000000:bit_error_cnt[         23]=                2097
cycle              1000000:bit_error_cnt[         24]=                1231
cycle              1000000:bit_error_cnt[         25]=                 704
cycle              1000000:bit_error_cnt[         26]=                 464
cycle              1000000:bit_error_cnt[         27]=                 330
cycle              1000000:bit_error_cnt[         28]=                 253
cycle              1000000:bit_error_cnt[         29]=                 215
cycle              1000000:bit_error_cnt[         30]=                 222
cycle              1000000:bit_error_cnt[         31]=                 140
