cycle              1000000:bit_error_cnt[          0]=               41123
cycle              1000000:bit_error_cnt[          1]=               40516
cycle              1000000:bit_error_cnt[          2]=               40883
cycle              1000000:bit_error_cnt[          3]=               40942
cycle              1000000:bit_error_cnt[          4]=               40167
cycle              1000000:bit_error_cnt[          5]=               38967
cycle              1000000:bit_error_cnt[          6]=               39059
cycle              1000000:bit_error_cnt[          7]=               38394
cycle              1000000:bit_error_cnt[          8]=               35737
cycle              1000000:bit_error_cnt[          9]=               34932
cycle              1000000:bit_error_cnt[         10]=               32782
cycle              1000000:bit_error_cnt[         11]=               32236
cycle              1000000:bit_error_cnt[         12]=               30615
cycle              1000000:bit_error_cnt[         13]=               27950
cycle              1000000:bit_error_cnt[         14]=               28068
cycle              1000000:bit_error_cnt[         15]=               28104
cycle              1000000:bit_error_cnt[         16]=               28930
cycle              1000000:bit_error_cnt[         17]=               29491
cycle              1000000:bit_error_cnt[         18]=               28411
cycle              1000000:bit_error_cnt[         19]=               28498
cycle              1000000:bit_error_cnt[         20]=               28546
cycle              1000000:bit_error_cnt[         21]=               26731
cycle              1000000:bit_error_cnt[         22]=               23409
cycle              1000000:bit_error_cnt[         23]=               10643
cycle              1000000:bit_error_cnt[         24]=                6209
cycle              1000000:bit_error_cnt[         25]=                3925
cycle              1000000:bit_error_cnt[         26]=                2618
cycle              1000000:bit_error_cnt[         27]=                2259
cycle              1000000:bit_error_cnt[         28]=                1882
cycle              1000000:bit_error_cnt[         29]=                2516
cycle              1000000:bit_error_cnt[         30]=                1619
cycle              1000000:bit_error_cnt[         31]=                 731
