cycle              1000000:bit_error_cnt[          0]=              579558
cycle              1000000:bit_error_cnt[          1]=               39812
cycle              1000000:bit_error_cnt[          2]=               39632
cycle              1000000:bit_error_cnt[          3]=               39772
cycle              1000000:bit_error_cnt[          4]=               38950
cycle              1000000:bit_error_cnt[          5]=               39082
cycle              1000000:bit_error_cnt[          6]=               39883
cycle              1000000:bit_error_cnt[          7]=               38477
cycle              1000000:bit_error_cnt[          8]=               38676
cycle              1000000:bit_error_cnt[          9]=               38694
cycle              1000000:bit_error_cnt[         10]=               38750
cycle              1000000:bit_error_cnt[         11]=               38766
cycle              1000000:bit_error_cnt[         12]=               37651
cycle              1000000:bit_error_cnt[         13]=               37229
cycle              1000000:bit_error_cnt[         14]=               37196
cycle              1000000:bit_error_cnt[         15]=               38297
cycle              1000000:bit_error_cnt[         16]=               38221
cycle              1000000:bit_error_cnt[         17]=               38042
cycle              1000000:bit_error_cnt[         18]=               37687
cycle              1000000:bit_error_cnt[         19]=               37343
cycle              1000000:bit_error_cnt[         20]=               36521
cycle              1000000:bit_error_cnt[         21]=               34977
cycle              1000000:bit_error_cnt[         22]=               32222
cycle              1000000:bit_error_cnt[         23]=              254714
cycle              1000000:bit_error_cnt[         24]=              254620
cycle              1000000:bit_error_cnt[         25]=              253926
cycle              1000000:bit_error_cnt[         26]=              255739
cycle              1000000:bit_error_cnt[         27]=              252405
cycle              1000000:bit_error_cnt[         28]=              255061
cycle              1000000:bit_error_cnt[         29]=              251931
cycle              1000000:bit_error_cnt[         30]=              253609
cycle              1000000:bit_error_cnt[         31]=              300509
