cycle              1000000:bit_error_cnt[          0]=               42588
cycle              1000000:bit_error_cnt[          1]=               42005
cycle              1000000:bit_error_cnt[          2]=               42338
cycle              1000000:bit_error_cnt[          3]=               41947
cycle              1000000:bit_error_cnt[          4]=               41211
cycle              1000000:bit_error_cnt[          5]=               40971
cycle              1000000:bit_error_cnt[          6]=               41379
cycle              1000000:bit_error_cnt[          7]=               39643
cycle              1000000:bit_error_cnt[          8]=               38059
cycle              1000000:bit_error_cnt[          9]=               36551
cycle              1000000:bit_error_cnt[         10]=               34294
cycle              1000000:bit_error_cnt[         11]=               33750
cycle              1000000:bit_error_cnt[         12]=               32119
cycle              1000000:bit_error_cnt[         13]=               30738
cycle              1000000:bit_error_cnt[         14]=               30994
cycle              1000000:bit_error_cnt[         15]=               31838
cycle              1000000:bit_error_cnt[         16]=               32696
cycle              1000000:bit_error_cnt[         17]=               32575
cycle              1000000:bit_error_cnt[         18]=               31818
cycle              1000000:bit_error_cnt[         19]=               31686
cycle              1000000:bit_error_cnt[         20]=               30808
cycle              1000000:bit_error_cnt[         21]=               29796
cycle              1000000:bit_error_cnt[         22]=               26853
cycle              1000000:bit_error_cnt[         23]=               13840
cycle              1000000:bit_error_cnt[         24]=                8617
cycle              1000000:bit_error_cnt[         25]=                5725
cycle              1000000:bit_error_cnt[         26]=                4064
cycle              1000000:bit_error_cnt[         27]=                3237
cycle              1000000:bit_error_cnt[         28]=                3432
cycle              1000000:bit_error_cnt[         29]=                4565
cycle              1000000:bit_error_cnt[         30]=                2745
cycle              1000000:bit_error_cnt[         31]=                1141
