cycle              1000000:bit_error_cnt[          0]=              578368
cycle              1000000:bit_error_cnt[          1]=               26765
cycle              1000000:bit_error_cnt[          2]=               26627
cycle              1000000:bit_error_cnt[          3]=               26769
cycle              1000000:bit_error_cnt[          4]=               26698
cycle              1000000:bit_error_cnt[          5]=               26717
cycle              1000000:bit_error_cnt[          6]=               26741
cycle              1000000:bit_error_cnt[          7]=               26770
cycle              1000000:bit_error_cnt[          8]=               26624
cycle              1000000:bit_error_cnt[          9]=               26644
cycle              1000000:bit_error_cnt[         10]=               26684
cycle              1000000:bit_error_cnt[         11]=               26519
cycle              1000000:bit_error_cnt[         12]=               26658
cycle              1000000:bit_error_cnt[         13]=               26662
cycle              1000000:bit_error_cnt[         14]=               26449
cycle              1000000:bit_error_cnt[         15]=               26499
cycle              1000000:bit_error_cnt[         16]=               26566
cycle              1000000:bit_error_cnt[         17]=               26531
cycle              1000000:bit_error_cnt[         18]=               26472
cycle              1000000:bit_error_cnt[         19]=               26269
cycle              1000000:bit_error_cnt[         20]=               25817
cycle              1000000:bit_error_cnt[         21]=               24696
cycle              1000000:bit_error_cnt[         22]=               22529
cycle              1000000:bit_error_cnt[         23]=              203271
cycle              1000000:bit_error_cnt[         24]=              202777
cycle              1000000:bit_error_cnt[         25]=              203298
cycle              1000000:bit_error_cnt[         26]=              203296
cycle              1000000:bit_error_cnt[         27]=              203113
cycle              1000000:bit_error_cnt[         28]=              203284
cycle              1000000:bit_error_cnt[         29]=              203030
cycle              1000000:bit_error_cnt[         30]=              202034
cycle              1000000:bit_error_cnt[         31]=              303812
