cycle              1000000:bit_error_cnt[          0]=               42153
cycle              1000000:bit_error_cnt[          1]=               41986
cycle              1000000:bit_error_cnt[          2]=               42329
cycle              1000000:bit_error_cnt[          3]=               41741
cycle              1000000:bit_error_cnt[          4]=               41119
cycle              1000000:bit_error_cnt[          5]=               40720
cycle              1000000:bit_error_cnt[          6]=               41237
cycle              1000000:bit_error_cnt[          7]=               39612
cycle              1000000:bit_error_cnt[          8]=               38148
cycle              1000000:bit_error_cnt[          9]=               36591
cycle              1000000:bit_error_cnt[         10]=               35043
cycle              1000000:bit_error_cnt[         11]=               33953
cycle              1000000:bit_error_cnt[         12]=               32560
cycle              1000000:bit_error_cnt[         13]=               31751
cycle              1000000:bit_error_cnt[         14]=               31969
cycle              1000000:bit_error_cnt[         15]=               33008
cycle              1000000:bit_error_cnt[         16]=               32349
cycle              1000000:bit_error_cnt[         17]=               33028
cycle              1000000:bit_error_cnt[         18]=               32853
cycle              1000000:bit_error_cnt[         19]=               32042
cycle              1000000:bit_error_cnt[         20]=               30887
cycle              1000000:bit_error_cnt[         21]=               29870
cycle              1000000:bit_error_cnt[         22]=               27220
cycle              1000000:bit_error_cnt[         23]=               16512
cycle              1000000:bit_error_cnt[         24]=                9855
cycle              1000000:bit_error_cnt[         25]=                6225
cycle              1000000:bit_error_cnt[         26]=                4195
cycle              1000000:bit_error_cnt[         27]=                3196
cycle              1000000:bit_error_cnt[         28]=                2383
cycle              1000000:bit_error_cnt[         29]=                4004
cycle              1000000:bit_error_cnt[         30]=                2671
cycle              1000000:bit_error_cnt[         31]=                 839
