cycle              1000000:bit_error_cnt[          0]=               39157
cycle              1000000:bit_error_cnt[          1]=               38852
cycle              1000000:bit_error_cnt[          2]=               39011
cycle              1000000:bit_error_cnt[          3]=               39194
cycle              1000000:bit_error_cnt[          4]=               38744
cycle              1000000:bit_error_cnt[          5]=               37760
cycle              1000000:bit_error_cnt[          6]=               37545
cycle              1000000:bit_error_cnt[          7]=               37221
cycle              1000000:bit_error_cnt[          8]=               34926
cycle              1000000:bit_error_cnt[          9]=               33760
cycle              1000000:bit_error_cnt[         10]=               32417
cycle              1000000:bit_error_cnt[         11]=               31663
cycle              1000000:bit_error_cnt[         12]=               30159
cycle              1000000:bit_error_cnt[         13]=               27179
cycle              1000000:bit_error_cnt[         14]=               26624
cycle              1000000:bit_error_cnt[         15]=               26248
cycle              1000000:bit_error_cnt[         16]=               27204
cycle              1000000:bit_error_cnt[         17]=               26965
cycle              1000000:bit_error_cnt[         18]=               25876
cycle              1000000:bit_error_cnt[         19]=               26456
cycle              1000000:bit_error_cnt[         20]=               26494
cycle              1000000:bit_error_cnt[         21]=               23968
cycle              1000000:bit_error_cnt[         22]=               19733
cycle              1000000:bit_error_cnt[         23]=                8747
cycle              1000000:bit_error_cnt[         24]=                5278
cycle              1000000:bit_error_cnt[         25]=                3386
cycle              1000000:bit_error_cnt[         26]=                2405
cycle              1000000:bit_error_cnt[         27]=                1731
cycle              1000000:bit_error_cnt[         28]=                1444
cycle              1000000:bit_error_cnt[         29]=                1551
cycle              1000000:bit_error_cnt[         30]=                1372
cycle              1000000:bit_error_cnt[         31]=                 890
