cycle              1000000:bit_error_cnt[          0]=               37776
cycle              1000000:bit_error_cnt[          1]=               37393
cycle              1000000:bit_error_cnt[          2]=               37605
cycle              1000000:bit_error_cnt[          3]=               38256
cycle              1000000:bit_error_cnt[          4]=               38035
cycle              1000000:bit_error_cnt[          5]=               36858
cycle              1000000:bit_error_cnt[          6]=               36703
cycle              1000000:bit_error_cnt[          7]=               36357
cycle              1000000:bit_error_cnt[          8]=               34499
cycle              1000000:bit_error_cnt[          9]=               33481
cycle              1000000:bit_error_cnt[         10]=               32111
cycle              1000000:bit_error_cnt[         11]=               31429
cycle              1000000:bit_error_cnt[         12]=               29876
cycle              1000000:bit_error_cnt[         13]=               26502
cycle              1000000:bit_error_cnt[         14]=               25705
cycle              1000000:bit_error_cnt[         15]=               25175
cycle              1000000:bit_error_cnt[         16]=               26191
cycle              1000000:bit_error_cnt[         17]=               25828
cycle              1000000:bit_error_cnt[         18]=               24521
cycle              1000000:bit_error_cnt[         19]=               25535
cycle              1000000:bit_error_cnt[         20]=               25763
cycle              1000000:bit_error_cnt[         21]=               22980
cycle              1000000:bit_error_cnt[         22]=               17439
cycle              1000000:bit_error_cnt[         23]=                7835
cycle              1000000:bit_error_cnt[         24]=                4810
cycle              1000000:bit_error_cnt[         25]=                3196
cycle              1000000:bit_error_cnt[         26]=                2312
cycle              1000000:bit_error_cnt[         27]=                1683
cycle              1000000:bit_error_cnt[         28]=                1397
cycle              1000000:bit_error_cnt[         29]=                1473
cycle              1000000:bit_error_cnt[         30]=                1346
cycle              1000000:bit_error_cnt[         31]=                 942
