cycle              1000000:bit_error_cnt[          0]=               77885
cycle              1000000:bit_error_cnt[          1]=               74089
cycle              1000000:bit_error_cnt[          2]=               74292
cycle              1000000:bit_error_cnt[          3]=               73979
cycle              1000000:bit_error_cnt[          4]=               73954
cycle              1000000:bit_error_cnt[          5]=               74645
cycle              1000000:bit_error_cnt[          6]=               73790
cycle              1000000:bit_error_cnt[          7]=               71035
cycle              1000000:bit_error_cnt[          8]=               68736
cycle              1000000:bit_error_cnt[          9]=               67006
cycle              1000000:bit_error_cnt[         10]=               66143
cycle              1000000:bit_error_cnt[         11]=               61154
cycle              1000000:bit_error_cnt[         12]=               60272
cycle              1000000:bit_error_cnt[         13]=               58432
cycle              1000000:bit_error_cnt[         14]=               58729
cycle              1000000:bit_error_cnt[         15]=               58786
cycle              1000000:bit_error_cnt[         16]=               56961
cycle              1000000:bit_error_cnt[         17]=               57571
cycle              1000000:bit_error_cnt[         18]=               57604
cycle              1000000:bit_error_cnt[         19]=               58399
cycle              1000000:bit_error_cnt[         20]=               59235
cycle              1000000:bit_error_cnt[         21]=               56535
cycle              1000000:bit_error_cnt[         22]=               55506
cycle              1000000:bit_error_cnt[         23]=               43838
cycle              1000000:bit_error_cnt[         24]=               33203
cycle              1000000:bit_error_cnt[         25]=               27278
cycle              1000000:bit_error_cnt[         26]=               23300
cycle              1000000:bit_error_cnt[         27]=               23814
cycle              1000000:bit_error_cnt[         28]=               26617
cycle              1000000:bit_error_cnt[         29]=               25574
cycle              1000000:bit_error_cnt[         30]=               24084
cycle              1000000:bit_error_cnt[         31]=                4124
