cycle              1000000:bit_error_cnt[          0]=              269681
cycle              1000000:bit_error_cnt[          1]=              151819
cycle              1000000:bit_error_cnt[          2]=              151856
cycle              1000000:bit_error_cnt[          3]=              151104
cycle              1000000:bit_error_cnt[          4]=              151306
cycle              1000000:bit_error_cnt[          5]=              151703
cycle              1000000:bit_error_cnt[          6]=              147312
cycle              1000000:bit_error_cnt[          7]=              141657
cycle              1000000:bit_error_cnt[          8]=              137824
cycle              1000000:bit_error_cnt[          9]=              134838
cycle              1000000:bit_error_cnt[         10]=              129675
cycle              1000000:bit_error_cnt[         11]=              123958
cycle              1000000:bit_error_cnt[         12]=              116654
cycle              1000000:bit_error_cnt[         13]=              116018
cycle              1000000:bit_error_cnt[         14]=              114793
cycle              1000000:bit_error_cnt[         15]=              116848
cycle              1000000:bit_error_cnt[         16]=              114741
cycle              1000000:bit_error_cnt[         17]=              111371
cycle              1000000:bit_error_cnt[         18]=              113537
cycle              1000000:bit_error_cnt[         19]=              112221
cycle              1000000:bit_error_cnt[         20]=              123411
cycle              1000000:bit_error_cnt[         21]=              116732
cycle              1000000:bit_error_cnt[         22]=              116073
cycle              1000000:bit_error_cnt[         23]=               94731
cycle              1000000:bit_error_cnt[         24]=               81110
cycle              1000000:bit_error_cnt[         25]=               73086
cycle              1000000:bit_error_cnt[         26]=               70841
cycle              1000000:bit_error_cnt[         27]=               71910
cycle              1000000:bit_error_cnt[         28]=               74493
cycle              1000000:bit_error_cnt[         29]=               73525
cycle              1000000:bit_error_cnt[         30]=               70055
cycle              1000000:bit_error_cnt[         31]=               63065
