cycle              1000000:bit_error_cnt[          0]=               43203
cycle              1000000:bit_error_cnt[          1]=               41791
cycle              1000000:bit_error_cnt[          2]=               41961
cycle              1000000:bit_error_cnt[          3]=               41611
cycle              1000000:bit_error_cnt[          4]=               41620
cycle              1000000:bit_error_cnt[          5]=               41852
cycle              1000000:bit_error_cnt[          6]=               41459
cycle              1000000:bit_error_cnt[          7]=               39297
cycle              1000000:bit_error_cnt[          8]=               38049
cycle              1000000:bit_error_cnt[          9]=               36201
cycle              1000000:bit_error_cnt[         10]=               35663
cycle              1000000:bit_error_cnt[         11]=               33605
cycle              1000000:bit_error_cnt[         12]=               32139
cycle              1000000:bit_error_cnt[         13]=               31576
cycle              1000000:bit_error_cnt[         14]=               32350
cycle              1000000:bit_error_cnt[         15]=               31777
cycle              1000000:bit_error_cnt[         16]=               32224
cycle              1000000:bit_error_cnt[         17]=               30937
cycle              1000000:bit_error_cnt[         18]=               31779
cycle              1000000:bit_error_cnt[         19]=               31142
cycle              1000000:bit_error_cnt[         20]=               32298
cycle              1000000:bit_error_cnt[         21]=               31892
cycle              1000000:bit_error_cnt[         22]=               29943
cycle              1000000:bit_error_cnt[         23]=               18334
cycle              1000000:bit_error_cnt[         24]=               11233
cycle              1000000:bit_error_cnt[         25]=                7279
cycle              1000000:bit_error_cnt[         26]=                5182
cycle              1000000:bit_error_cnt[         27]=                4656
cycle              1000000:bit_error_cnt[         28]=                4882
cycle              1000000:bit_error_cnt[         29]=                6504
cycle              1000000:bit_error_cnt[         30]=                3996
cycle              1000000:bit_error_cnt[         31]=                1914
