cycle              1000000:bit_error_cnt[          0]=               50929
cycle              1000000:bit_error_cnt[          1]=               50122
cycle              1000000:bit_error_cnt[          2]=               50216
cycle              1000000:bit_error_cnt[          3]=               49880
cycle              1000000:bit_error_cnt[          4]=               49899
cycle              1000000:bit_error_cnt[          5]=               50554
cycle              1000000:bit_error_cnt[          6]=               49532
cycle              1000000:bit_error_cnt[          7]=               47312
cycle              1000000:bit_error_cnt[          8]=               45930
cycle              1000000:bit_error_cnt[          9]=               44217
cycle              1000000:bit_error_cnt[         10]=               43821
cycle              1000000:bit_error_cnt[         11]=               40612
cycle              1000000:bit_error_cnt[         12]=               39768
cycle              1000000:bit_error_cnt[         13]=               38777
cycle              1000000:bit_error_cnt[         14]=               39887
cycle              1000000:bit_error_cnt[         15]=               39298
cycle              1000000:bit_error_cnt[         16]=               38998
cycle              1000000:bit_error_cnt[         17]=               37776
cycle              1000000:bit_error_cnt[         18]=               38389
cycle              1000000:bit_error_cnt[         19]=               38887
cycle              1000000:bit_error_cnt[         20]=               39891
cycle              1000000:bit_error_cnt[         21]=               38487
cycle              1000000:bit_error_cnt[         22]=               35824
cycle              1000000:bit_error_cnt[         23]=               25752
cycle              1000000:bit_error_cnt[         24]=               16864
cycle              1000000:bit_error_cnt[         25]=               12002
cycle              1000000:bit_error_cnt[         26]=                8879
cycle              1000000:bit_error_cnt[         27]=                8704
cycle              1000000:bit_error_cnt[         28]=               11528
cycle              1000000:bit_error_cnt[         29]=               12151
cycle              1000000:bit_error_cnt[         30]=                7508
cycle              1000000:bit_error_cnt[         31]=                1465
