cycle              1000000:bit_error_cnt[          0]=               41929
cycle              1000000:bit_error_cnt[          1]=               41286
cycle              1000000:bit_error_cnt[          2]=               41827
cycle              1000000:bit_error_cnt[          3]=               41729
cycle              1000000:bit_error_cnt[          4]=               40968
cycle              1000000:bit_error_cnt[          5]=               40656
cycle              1000000:bit_error_cnt[          6]=               40864
cycle              1000000:bit_error_cnt[          7]=               39391
cycle              1000000:bit_error_cnt[          8]=               37739
cycle              1000000:bit_error_cnt[          9]=               36311
cycle              1000000:bit_error_cnt[         10]=               34439
cycle              1000000:bit_error_cnt[         11]=               33632
cycle              1000000:bit_error_cnt[         12]=               32373
cycle              1000000:bit_error_cnt[         13]=               31280
cycle              1000000:bit_error_cnt[         14]=               31446
cycle              1000000:bit_error_cnt[         15]=               32556
cycle              1000000:bit_error_cnt[         16]=               32519
cycle              1000000:bit_error_cnt[         17]=               32309
cycle              1000000:bit_error_cnt[         18]=               31992
cycle              1000000:bit_error_cnt[         19]=               31794
cycle              1000000:bit_error_cnt[         20]=               30868
cycle              1000000:bit_error_cnt[         21]=               29761
cycle              1000000:bit_error_cnt[         22]=               26129
cycle              1000000:bit_error_cnt[         23]=               14347
cycle              1000000:bit_error_cnt[         24]=                8706
cycle              1000000:bit_error_cnt[         25]=                5625
cycle              1000000:bit_error_cnt[         26]=                3828
cycle              1000000:bit_error_cnt[         27]=                3062
cycle              1000000:bit_error_cnt[         28]=                2097
cycle              1000000:bit_error_cnt[         29]=                3358
cycle              1000000:bit_error_cnt[         30]=                2518
cycle              1000000:bit_error_cnt[         31]=                1051
