cycle              1000000:bit_error_cnt[          0]=               76778
cycle              1000000:bit_error_cnt[          1]=               73063
cycle              1000000:bit_error_cnt[          2]=               73329
cycle              1000000:bit_error_cnt[          3]=               72721
cycle              1000000:bit_error_cnt[          4]=               72855
cycle              1000000:bit_error_cnt[          5]=               73010
cycle              1000000:bit_error_cnt[          6]=               71758
cycle              1000000:bit_error_cnt[          7]=               69177
cycle              1000000:bit_error_cnt[          8]=               66682
cycle              1000000:bit_error_cnt[          9]=               64979
cycle              1000000:bit_error_cnt[         10]=               63729
cycle              1000000:bit_error_cnt[         11]=               60234
cycle              1000000:bit_error_cnt[         12]=               58959
cycle              1000000:bit_error_cnt[         13]=               56810
cycle              1000000:bit_error_cnt[         14]=               56164
cycle              1000000:bit_error_cnt[         15]=               57617
cycle              1000000:bit_error_cnt[         16]=               53912
cycle              1000000:bit_error_cnt[         17]=               55960
cycle              1000000:bit_error_cnt[         18]=               56807
cycle              1000000:bit_error_cnt[         19]=               55700
cycle              1000000:bit_error_cnt[         20]=               58285
cycle              1000000:bit_error_cnt[         21]=               55075
cycle              1000000:bit_error_cnt[         22]=               53388
cycle              1000000:bit_error_cnt[         23]=               41955
cycle              1000000:bit_error_cnt[         24]=               32422
cycle              1000000:bit_error_cnt[         25]=               27293
cycle              1000000:bit_error_cnt[         26]=               24397
cycle              1000000:bit_error_cnt[         27]=               24935
cycle              1000000:bit_error_cnt[         28]=               27690
cycle              1000000:bit_error_cnt[         29]=               27356
cycle              1000000:bit_error_cnt[         30]=               21108
cycle              1000000:bit_error_cnt[         31]=                5094
