cycle              1000000:bit_error_cnt[          0]=               37435
cycle              1000000:bit_error_cnt[          1]=               37513
cycle              1000000:bit_error_cnt[          2]=               37778
cycle              1000000:bit_error_cnt[          3]=               38263
cycle              1000000:bit_error_cnt[          4]=               38202
cycle              1000000:bit_error_cnt[          5]=               37077
cycle              1000000:bit_error_cnt[          6]=               36693
cycle              1000000:bit_error_cnt[          7]=               36183
cycle              1000000:bit_error_cnt[          8]=               34265
cycle              1000000:bit_error_cnt[          9]=               33202
cycle              1000000:bit_error_cnt[         10]=               31950
cycle              1000000:bit_error_cnt[         11]=               31215
cycle              1000000:bit_error_cnt[         12]=               29721
cycle              1000000:bit_error_cnt[         13]=               26531
cycle              1000000:bit_error_cnt[         14]=               25711
cycle              1000000:bit_error_cnt[         15]=               25012
cycle              1000000:bit_error_cnt[         16]=               26193
cycle              1000000:bit_error_cnt[         17]=               25892
cycle              1000000:bit_error_cnt[         18]=               24459
cycle              1000000:bit_error_cnt[         19]=               25480
cycle              1000000:bit_error_cnt[         20]=               26026
cycle              1000000:bit_error_cnt[         21]=               22852
cycle              1000000:bit_error_cnt[         22]=               17299
cycle              1000000:bit_error_cnt[         23]=                7606
cycle              1000000:bit_error_cnt[         24]=                4575
cycle              1000000:bit_error_cnt[         25]=                2916
cycle              1000000:bit_error_cnt[         26]=                2065
cycle              1000000:bit_error_cnt[         27]=                1388
cycle              1000000:bit_error_cnt[         28]=                1099
cycle              1000000:bit_error_cnt[         29]=                1076
cycle              1000000:bit_error_cnt[         30]=                1245
cycle              1000000:bit_error_cnt[         31]=                 606
