cycle              1000000:bit_error_cnt[          0]=               77171
cycle              1000000:bit_error_cnt[          1]=               73660
cycle              1000000:bit_error_cnt[          2]=               73690
cycle              1000000:bit_error_cnt[          3]=               73304
cycle              1000000:bit_error_cnt[          4]=               73188
cycle              1000000:bit_error_cnt[          5]=               73818
cycle              1000000:bit_error_cnt[          6]=               72566
cycle              1000000:bit_error_cnt[          7]=               69815
cycle              1000000:bit_error_cnt[          8]=               67364
cycle              1000000:bit_error_cnt[          9]=               65747
cycle              1000000:bit_error_cnt[         10]=               64933
cycle              1000000:bit_error_cnt[         11]=               60993
cycle              1000000:bit_error_cnt[         12]=               59915
cycle              1000000:bit_error_cnt[         13]=               57561
cycle              1000000:bit_error_cnt[         14]=               57050
cycle              1000000:bit_error_cnt[         15]=               58588
cycle              1000000:bit_error_cnt[         16]=               55094
cycle              1000000:bit_error_cnt[         17]=               56464
cycle              1000000:bit_error_cnt[         18]=               57317
cycle              1000000:bit_error_cnt[         19]=               56428
cycle              1000000:bit_error_cnt[         20]=               57423
cycle              1000000:bit_error_cnt[         21]=               55288
cycle              1000000:bit_error_cnt[         22]=               54270
cycle              1000000:bit_error_cnt[         23]=               41979
cycle              1000000:bit_error_cnt[         24]=               31988
cycle              1000000:bit_error_cnt[         25]=               26536
cycle              1000000:bit_error_cnt[         26]=               22769
cycle              1000000:bit_error_cnt[         27]=               23786
cycle              1000000:bit_error_cnt[         28]=               27494
cycle              1000000:bit_error_cnt[         29]=               25705
cycle              1000000:bit_error_cnt[         30]=               24068
cycle              1000000:bit_error_cnt[         31]=                4112
