cycle              1000000:bit_error_cnt[          0]=              546446
cycle              1000000:bit_error_cnt[          1]=               30300
cycle              1000000:bit_error_cnt[          2]=               30262
cycle              1000000:bit_error_cnt[          3]=               30740
cycle              1000000:bit_error_cnt[          4]=               30337
cycle              1000000:bit_error_cnt[          5]=               30222
cycle              1000000:bit_error_cnt[          6]=               30155
cycle              1000000:bit_error_cnt[          7]=               30235
cycle              1000000:bit_error_cnt[          8]=               29800
cycle              1000000:bit_error_cnt[          9]=               29664
cycle              1000000:bit_error_cnt[         10]=               30824
cycle              1000000:bit_error_cnt[         11]=               30618
cycle              1000000:bit_error_cnt[         12]=               28570
cycle              1000000:bit_error_cnt[         13]=               30343
cycle              1000000:bit_error_cnt[         14]=               28194
cycle              1000000:bit_error_cnt[         15]=               28688
cycle              1000000:bit_error_cnt[         16]=               30781
cycle              1000000:bit_error_cnt[         17]=               29155
cycle              1000000:bit_error_cnt[         18]=               29029
cycle              1000000:bit_error_cnt[         19]=               29059
cycle              1000000:bit_error_cnt[         20]=               28803
cycle              1000000:bit_error_cnt[         21]=               28778
cycle              1000000:bit_error_cnt[         22]=               27537
cycle              1000000:bit_error_cnt[         23]=              197189
cycle              1000000:bit_error_cnt[         24]=              197107
cycle              1000000:bit_error_cnt[         25]=              197258
cycle              1000000:bit_error_cnt[         26]=              196469
cycle              1000000:bit_error_cnt[         27]=              196257
cycle              1000000:bit_error_cnt[         28]=              196453
cycle              1000000:bit_error_cnt[         29]=              195846
cycle              1000000:bit_error_cnt[         30]=              195433
cycle              1000000:bit_error_cnt[         31]=              302959
