cycle              1000000:bit_error_cnt[          0]=               76657
cycle              1000000:bit_error_cnt[          1]=               73013
cycle              1000000:bit_error_cnt[          2]=               73109
cycle              1000000:bit_error_cnt[          3]=               72845
cycle              1000000:bit_error_cnt[          4]=               72725
cycle              1000000:bit_error_cnt[          5]=               73070
cycle              1000000:bit_error_cnt[          6]=               71472
cycle              1000000:bit_error_cnt[          7]=               68369
cycle              1000000:bit_error_cnt[          8]=               66524
cycle              1000000:bit_error_cnt[          9]=               64925
cycle              1000000:bit_error_cnt[         10]=               64483
cycle              1000000:bit_error_cnt[         11]=               59789
cycle              1000000:bit_error_cnt[         12]=               58584
cycle              1000000:bit_error_cnt[         13]=               56727
cycle              1000000:bit_error_cnt[         14]=               57140
cycle              1000000:bit_error_cnt[         15]=               57769
cycle              1000000:bit_error_cnt[         16]=               55831
cycle              1000000:bit_error_cnt[         17]=               56303
cycle              1000000:bit_error_cnt[         18]=               56267
cycle              1000000:bit_error_cnt[         19]=               57064
cycle              1000000:bit_error_cnt[         20]=               57445
cycle              1000000:bit_error_cnt[         21]=               54892
cycle              1000000:bit_error_cnt[         22]=               53279
cycle              1000000:bit_error_cnt[         23]=               42435
cycle              1000000:bit_error_cnt[         24]=               31857
cycle              1000000:bit_error_cnt[         25]=               26201
cycle              1000000:bit_error_cnt[         26]=               22290
cycle              1000000:bit_error_cnt[         27]=               23305
cycle              1000000:bit_error_cnt[         28]=               25244
cycle              1000000:bit_error_cnt[         29]=               25362
cycle              1000000:bit_error_cnt[         30]=               22443
cycle              1000000:bit_error_cnt[         31]=                4049
