cycle              1000000:bit_error_cnt[          0]=              607759
cycle              1000000:bit_error_cnt[          1]=               45281
cycle              1000000:bit_error_cnt[          2]=               44995
cycle              1000000:bit_error_cnt[          3]=               45263
cycle              1000000:bit_error_cnt[          4]=               45161
cycle              1000000:bit_error_cnt[          5]=               45078
cycle              1000000:bit_error_cnt[          6]=               45014
cycle              1000000:bit_error_cnt[          7]=               45265
cycle              1000000:bit_error_cnt[          8]=               44993
cycle              1000000:bit_error_cnt[          9]=               44996
cycle              1000000:bit_error_cnt[         10]=               43264
cycle              1000000:bit_error_cnt[         11]=               42995
cycle              1000000:bit_error_cnt[         12]=               44019
cycle              1000000:bit_error_cnt[         13]=               41877
cycle              1000000:bit_error_cnt[         14]=               44263
cycle              1000000:bit_error_cnt[         15]=               44789
cycle              1000000:bit_error_cnt[         16]=               43405
cycle              1000000:bit_error_cnt[         17]=               44837
cycle              1000000:bit_error_cnt[         18]=               44733
cycle              1000000:bit_error_cnt[         19]=               44541
cycle              1000000:bit_error_cnt[         20]=               44049
cycle              1000000:bit_error_cnt[         21]=               41897
cycle              1000000:bit_error_cnt[         22]=               34790
cycle              1000000:bit_error_cnt[         23]=              272156
cycle              1000000:bit_error_cnt[         24]=              272769
cycle              1000000:bit_error_cnt[         25]=              272833
cycle              1000000:bit_error_cnt[         26]=              272875
cycle              1000000:bit_error_cnt[         27]=              273091
cycle              1000000:bit_error_cnt[         28]=              272215
cycle              1000000:bit_error_cnt[         29]=              272124
cycle              1000000:bit_error_cnt[         30]=              272292
cycle              1000000:bit_error_cnt[         31]=              280549
