cycle              1000000:bit_error_cnt[          0]=               37731
cycle              1000000:bit_error_cnt[          1]=               37968
cycle              1000000:bit_error_cnt[          2]=               38143
cycle              1000000:bit_error_cnt[          3]=               38580
cycle              1000000:bit_error_cnt[          4]=               38399
cycle              1000000:bit_error_cnt[          5]=               37380
cycle              1000000:bit_error_cnt[          6]=               36982
cycle              1000000:bit_error_cnt[          7]=               36523
cycle              1000000:bit_error_cnt[          8]=               34377
cycle              1000000:bit_error_cnt[          9]=               33295
cycle              1000000:bit_error_cnt[         10]=               32078
cycle              1000000:bit_error_cnt[         11]=               31368
cycle              1000000:bit_error_cnt[         12]=               29771
cycle              1000000:bit_error_cnt[         13]=               26488
cycle              1000000:bit_error_cnt[         14]=               25870
cycle              1000000:bit_error_cnt[         15]=               25129
cycle              1000000:bit_error_cnt[         16]=               26292
cycle              1000000:bit_error_cnt[         17]=               26170
cycle              1000000:bit_error_cnt[         18]=               24840
cycle              1000000:bit_error_cnt[         19]=               25790
cycle              1000000:bit_error_cnt[         20]=               26145
cycle              1000000:bit_error_cnt[         21]=               23233
cycle              1000000:bit_error_cnt[         22]=               18049
cycle              1000000:bit_error_cnt[         23]=                8038
cycle              1000000:bit_error_cnt[         24]=                4806
cycle              1000000:bit_error_cnt[         25]=                3058
cycle              1000000:bit_error_cnt[         26]=                2169
cycle              1000000:bit_error_cnt[         27]=                1448
cycle              1000000:bit_error_cnt[         28]=                1153
cycle              1000000:bit_error_cnt[         29]=                1112
cycle              1000000:bit_error_cnt[         30]=                1176
cycle              1000000:bit_error_cnt[         31]=                 623
