cycle              1000000:bit_error_cnt[          0]=              520933
cycle              1000000:bit_error_cnt[          1]=              110503
cycle              1000000:bit_error_cnt[          2]=              110678
cycle              1000000:bit_error_cnt[          3]=              109629
cycle              1000000:bit_error_cnt[          4]=              108315
cycle              1000000:bit_error_cnt[          5]=              107486
cycle              1000000:bit_error_cnt[          6]=              107564
cycle              1000000:bit_error_cnt[          7]=              107780
cycle              1000000:bit_error_cnt[          8]=              100993
cycle              1000000:bit_error_cnt[          9]=               98841
cycle              1000000:bit_error_cnt[         10]=               95472
cycle              1000000:bit_error_cnt[         11]=               93474
cycle              1000000:bit_error_cnt[         12]=               79061
cycle              1000000:bit_error_cnt[         13]=               80549
cycle              1000000:bit_error_cnt[         14]=               79017
cycle              1000000:bit_error_cnt[         15]=               91106
cycle              1000000:bit_error_cnt[         16]=               87577
cycle              1000000:bit_error_cnt[         17]=               88923
cycle              1000000:bit_error_cnt[         18]=               94707
cycle              1000000:bit_error_cnt[         19]=               92717
cycle              1000000:bit_error_cnt[         20]=               95652
cycle              1000000:bit_error_cnt[         21]=               78897
cycle              1000000:bit_error_cnt[         22]=               88032
cycle              1000000:bit_error_cnt[         23]=              113655
cycle              1000000:bit_error_cnt[         24]=              107287
cycle              1000000:bit_error_cnt[         25]=              116375
cycle              1000000:bit_error_cnt[         26]=              104835
cycle              1000000:bit_error_cnt[         27]=              113133
cycle              1000000:bit_error_cnt[         28]=              116371
cycle              1000000:bit_error_cnt[         29]=              111019
cycle              1000000:bit_error_cnt[         30]=              113156
cycle              1000000:bit_error_cnt[         31]=              178145
