cycle              1000000:bit_error_cnt[          0]=              535847
cycle              1000000:bit_error_cnt[          1]=               30325
cycle              1000000:bit_error_cnt[          2]=               30318
cycle              1000000:bit_error_cnt[          3]=               30888
cycle              1000000:bit_error_cnt[          4]=               30491
cycle              1000000:bit_error_cnt[          5]=               30309
cycle              1000000:bit_error_cnt[          6]=               30218
cycle              1000000:bit_error_cnt[          7]=               30228
cycle              1000000:bit_error_cnt[          8]=               29852
cycle              1000000:bit_error_cnt[          9]=               29728
cycle              1000000:bit_error_cnt[         10]=               30968
cycle              1000000:bit_error_cnt[         11]=               30881
cycle              1000000:bit_error_cnt[         12]=               30496
cycle              1000000:bit_error_cnt[         13]=               30507
cycle              1000000:bit_error_cnt[         14]=               30432
cycle              1000000:bit_error_cnt[         15]=               28692
cycle              1000000:bit_error_cnt[         16]=               30917
cycle              1000000:bit_error_cnt[         17]=               29070
cycle              1000000:bit_error_cnt[         18]=               29104
cycle              1000000:bit_error_cnt[         19]=               28898
cycle              1000000:bit_error_cnt[         20]=               28946
cycle              1000000:bit_error_cnt[         21]=               28688
cycle              1000000:bit_error_cnt[         22]=               27771
cycle              1000000:bit_error_cnt[         23]=              194678
cycle              1000000:bit_error_cnt[         24]=              194654
cycle              1000000:bit_error_cnt[         25]=              194382
cycle              1000000:bit_error_cnt[         26]=              194096
cycle              1000000:bit_error_cnt[         27]=              193928
cycle              1000000:bit_error_cnt[         28]=              193897
cycle              1000000:bit_error_cnt[         29]=              193275
cycle              1000000:bit_error_cnt[         30]=              192871
cycle              1000000:bit_error_cnt[         31]=              307922
