cycle              1000000:bit_error_cnt[          0]=              516768
cycle              1000000:bit_error_cnt[          1]=              112063
cycle              1000000:bit_error_cnt[          2]=              111555
cycle              1000000:bit_error_cnt[          3]=              108812
cycle              1000000:bit_error_cnt[          4]=              108389
cycle              1000000:bit_error_cnt[          5]=              107460
cycle              1000000:bit_error_cnt[          6]=              105551
cycle              1000000:bit_error_cnt[          7]=              101803
cycle              1000000:bit_error_cnt[          8]=               98601
cycle              1000000:bit_error_cnt[          9]=               96346
cycle              1000000:bit_error_cnt[         10]=               95923
cycle              1000000:bit_error_cnt[         11]=               92619
cycle              1000000:bit_error_cnt[         12]=               80671
cycle              1000000:bit_error_cnt[         13]=               82720
cycle              1000000:bit_error_cnt[         14]=               83848
cycle              1000000:bit_error_cnt[         15]=               92169
cycle              1000000:bit_error_cnt[         16]=               89001
cycle              1000000:bit_error_cnt[         17]=               89008
cycle              1000000:bit_error_cnt[         18]=               94689
cycle              1000000:bit_error_cnt[         19]=               92016
cycle              1000000:bit_error_cnt[         20]=               94930
cycle              1000000:bit_error_cnt[         21]=               79856
cycle              1000000:bit_error_cnt[         22]=               91052
cycle              1000000:bit_error_cnt[         23]=              112968
cycle              1000000:bit_error_cnt[         24]=              104747
cycle              1000000:bit_error_cnt[         25]=              104267
cycle              1000000:bit_error_cnt[         26]=              105899
cycle              1000000:bit_error_cnt[         27]=              108817
cycle              1000000:bit_error_cnt[         28]=              106884
cycle              1000000:bit_error_cnt[         29]=              106853
cycle              1000000:bit_error_cnt[         30]=              101379
cycle              1000000:bit_error_cnt[         31]=              178898
