cycle              1000000:bit_error_cnt[          0]=               42933
cycle              1000000:bit_error_cnt[          1]=               41536
cycle              1000000:bit_error_cnt[          2]=               41785
cycle              1000000:bit_error_cnt[          3]=               41178
cycle              1000000:bit_error_cnt[          4]=               41196
cycle              1000000:bit_error_cnt[          5]=               41494
cycle              1000000:bit_error_cnt[          6]=               41272
cycle              1000000:bit_error_cnt[          7]=               39085
cycle              1000000:bit_error_cnt[          8]=               37902
cycle              1000000:bit_error_cnt[          9]=               35867
cycle              1000000:bit_error_cnt[         10]=               35313
cycle              1000000:bit_error_cnt[         11]=               33229
cycle              1000000:bit_error_cnt[         12]=               31734
cycle              1000000:bit_error_cnt[         13]=               31263
cycle              1000000:bit_error_cnt[         14]=               32422
cycle              1000000:bit_error_cnt[         15]=               31686
cycle              1000000:bit_error_cnt[         16]=               31565
cycle              1000000:bit_error_cnt[         17]=               30804
cycle              1000000:bit_error_cnt[         18]=               31738
cycle              1000000:bit_error_cnt[         19]=               31011
cycle              1000000:bit_error_cnt[         20]=               32283
cycle              1000000:bit_error_cnt[         21]=               31287
cycle              1000000:bit_error_cnt[         22]=               28983
cycle              1000000:bit_error_cnt[         23]=               18310
cycle              1000000:bit_error_cnt[         24]=               11155
cycle              1000000:bit_error_cnt[         25]=                7197
cycle              1000000:bit_error_cnt[         26]=                5148
cycle              1000000:bit_error_cnt[         27]=                4377
cycle              1000000:bit_error_cnt[         28]=                4912
cycle              1000000:bit_error_cnt[         29]=                6130
cycle              1000000:bit_error_cnt[         30]=                4000
cycle              1000000:bit_error_cnt[         31]=                1913
