cycle              1000000:bit_error_cnt[          0]=              472147
cycle              1000000:bit_error_cnt[          1]=              140884
cycle              1000000:bit_error_cnt[          2]=              140371
cycle              1000000:bit_error_cnt[          3]=              140591
cycle              1000000:bit_error_cnt[          4]=              140671
cycle              1000000:bit_error_cnt[          5]=              140357
cycle              1000000:bit_error_cnt[          6]=              135748
cycle              1000000:bit_error_cnt[          7]=              132019
cycle              1000000:bit_error_cnt[          8]=              133105
cycle              1000000:bit_error_cnt[          9]=              131112
cycle              1000000:bit_error_cnt[         10]=              126826
cycle              1000000:bit_error_cnt[         11]=              119735
cycle              1000000:bit_error_cnt[         12]=              119232
cycle              1000000:bit_error_cnt[         13]=              118699
cycle              1000000:bit_error_cnt[         14]=              118221
cycle              1000000:bit_error_cnt[         15]=              116974
cycle              1000000:bit_error_cnt[         16]=              115964
cycle              1000000:bit_error_cnt[         17]=              110728
cycle              1000000:bit_error_cnt[         18]=              110630
cycle              1000000:bit_error_cnt[         19]=              117699
cycle              1000000:bit_error_cnt[         20]=              117757
cycle              1000000:bit_error_cnt[         21]=              114994
cycle              1000000:bit_error_cnt[         22]=              109384
cycle              1000000:bit_error_cnt[         23]=              106760
cycle              1000000:bit_error_cnt[         24]=               91591
cycle              1000000:bit_error_cnt[         25]=               81581
cycle              1000000:bit_error_cnt[         26]=               78564
cycle              1000000:bit_error_cnt[         27]=               79958
cycle              1000000:bit_error_cnt[         28]=               80599
cycle              1000000:bit_error_cnt[         29]=               79258
cycle              1000000:bit_error_cnt[         30]=               80822
cycle              1000000:bit_error_cnt[         31]=              169837
