cycle              1000000:bit_error_cnt[          0]=              653131
cycle              1000000:bit_error_cnt[          1]=               58963
cycle              1000000:bit_error_cnt[          2]=               58571
cycle              1000000:bit_error_cnt[          3]=               58768
cycle              1000000:bit_error_cnt[          4]=               58868
cycle              1000000:bit_error_cnt[          5]=               58913
cycle              1000000:bit_error_cnt[          6]=               58859
cycle              1000000:bit_error_cnt[          7]=               55189
cycle              1000000:bit_error_cnt[          8]=               58525
cycle              1000000:bit_error_cnt[          9]=               56005
cycle              1000000:bit_error_cnt[         10]=               55826
cycle              1000000:bit_error_cnt[         11]=               55906
cycle              1000000:bit_error_cnt[         12]=               51771
cycle              1000000:bit_error_cnt[         13]=               51147
cycle              1000000:bit_error_cnt[         14]=               51304
cycle              1000000:bit_error_cnt[         15]=               56157
cycle              1000000:bit_error_cnt[         16]=               58734
cycle              1000000:bit_error_cnt[         17]=               54277
cycle              1000000:bit_error_cnt[         18]=               56968
cycle              1000000:bit_error_cnt[         19]=               50219
cycle              1000000:bit_error_cnt[         20]=               52217
cycle              1000000:bit_error_cnt[         21]=               50859
cycle              1000000:bit_error_cnt[         22]=               49643
cycle              1000000:bit_error_cnt[         23]=              291827
cycle              1000000:bit_error_cnt[         24]=              289557
cycle              1000000:bit_error_cnt[         25]=              287019
cycle              1000000:bit_error_cnt[         26]=              293935
cycle              1000000:bit_error_cnt[         27]=              286692
cycle              1000000:bit_error_cnt[         28]=              287794
cycle              1000000:bit_error_cnt[         29]=              285939
cycle              1000000:bit_error_cnt[         30]=              286609
cycle              1000000:bit_error_cnt[         31]=              298258
