cycle              1000000:bit_error_cnt[          0]=               40810
cycle              1000000:bit_error_cnt[          1]=               40217
cycle              1000000:bit_error_cnt[          2]=               40563
cycle              1000000:bit_error_cnt[          3]=               40444
cycle              1000000:bit_error_cnt[          4]=               39691
cycle              1000000:bit_error_cnt[          5]=               38753
cycle              1000000:bit_error_cnt[          6]=               38672
cycle              1000000:bit_error_cnt[          7]=               38077
cycle              1000000:bit_error_cnt[          8]=               35560
cycle              1000000:bit_error_cnt[          9]=               34564
cycle              1000000:bit_error_cnt[         10]=               32849
cycle              1000000:bit_error_cnt[         11]=               32074
cycle              1000000:bit_error_cnt[         12]=               30468
cycle              1000000:bit_error_cnt[         13]=               27760
cycle              1000000:bit_error_cnt[         14]=               27803
cycle              1000000:bit_error_cnt[         15]=               28024
cycle              1000000:bit_error_cnt[         16]=               28827
cycle              1000000:bit_error_cnt[         17]=               29197
cycle              1000000:bit_error_cnt[         18]=               28314
cycle              1000000:bit_error_cnt[         19]=               28046
cycle              1000000:bit_error_cnt[         20]=               27983
cycle              1000000:bit_error_cnt[         21]=               25979
cycle              1000000:bit_error_cnt[         22]=               20831
cycle              1000000:bit_error_cnt[         23]=               10414
cycle              1000000:bit_error_cnt[         24]=                6099
cycle              1000000:bit_error_cnt[         25]=                3859
cycle              1000000:bit_error_cnt[         26]=                2672
cycle              1000000:bit_error_cnt[         27]=                2034
cycle              1000000:bit_error_cnt[         28]=                1669
cycle              1000000:bit_error_cnt[         29]=                2059
cycle              1000000:bit_error_cnt[         30]=                1795
cycle              1000000:bit_error_cnt[         31]=                 904
