cycle              1000000:bit_error_cnt[          0]=              520236
cycle              1000000:bit_error_cnt[          1]=              101156
cycle              1000000:bit_error_cnt[          2]=              101256
cycle              1000000:bit_error_cnt[          3]=              102662
cycle              1000000:bit_error_cnt[          4]=              102793
cycle              1000000:bit_error_cnt[          5]=              100341
cycle              1000000:bit_error_cnt[          6]=              100729
cycle              1000000:bit_error_cnt[          7]=              100389
cycle              1000000:bit_error_cnt[          8]=               95635
cycle              1000000:bit_error_cnt[          9]=               96329
cycle              1000000:bit_error_cnt[         10]=               94480
cycle              1000000:bit_error_cnt[         11]=               91414
cycle              1000000:bit_error_cnt[         12]=               80959
cycle              1000000:bit_error_cnt[         13]=               76951
cycle              1000000:bit_error_cnt[         14]=               75380
cycle              1000000:bit_error_cnt[         15]=               87490
cycle              1000000:bit_error_cnt[         16]=               84011
cycle              1000000:bit_error_cnt[         17]=               86157
cycle              1000000:bit_error_cnt[         18]=               87615
cycle              1000000:bit_error_cnt[         19]=               97297
cycle              1000000:bit_error_cnt[         20]=               92528
cycle              1000000:bit_error_cnt[         21]=               81310
cycle              1000000:bit_error_cnt[         22]=               86877
cycle              1000000:bit_error_cnt[         23]=              114795
cycle              1000000:bit_error_cnt[         24]=              109685
cycle              1000000:bit_error_cnt[         25]=              115674
cycle              1000000:bit_error_cnt[         26]=              104129
cycle              1000000:bit_error_cnt[         27]=              114180
cycle              1000000:bit_error_cnt[         28]=              114369
cycle              1000000:bit_error_cnt[         29]=              112552
cycle              1000000:bit_error_cnt[         30]=              113415
cycle              1000000:bit_error_cnt[         31]=              185325
