cycle              1000000:bit_error_cnt[          0]=                2978
cycle              1000000:bit_error_cnt[          1]=                3563
cycle              1000000:bit_error_cnt[          2]=                3751
cycle              1000000:bit_error_cnt[          3]=                4759
cycle              1000000:bit_error_cnt[          4]=                6468
cycle              1000000:bit_error_cnt[          5]=                5691
cycle              1000000:bit_error_cnt[          6]=                5121
cycle              1000000:bit_error_cnt[          7]=                5558
cycle              1000000:bit_error_cnt[          8]=                5198
cycle              1000000:bit_error_cnt[          9]=                5307
cycle              1000000:bit_error_cnt[         10]=                4876
cycle              1000000:bit_error_cnt[         11]=                5146
cycle              1000000:bit_error_cnt[         12]=                4991
cycle              1000000:bit_error_cnt[         13]=                3335
cycle              1000000:bit_error_cnt[         14]=                2151
cycle              1000000:bit_error_cnt[         15]=                1452
cycle              1000000:bit_error_cnt[         16]=                1429
cycle              1000000:bit_error_cnt[         17]=                1309
cycle              1000000:bit_error_cnt[         18]=                1361
cycle              1000000:bit_error_cnt[         19]=                2651
cycle              1000000:bit_error_cnt[         20]=                2550
cycle              1000000:bit_error_cnt[         21]=                1119
cycle              1000000:bit_error_cnt[         22]=                 403
cycle              1000000:bit_error_cnt[         23]=                 194
cycle              1000000:bit_error_cnt[         24]=                  99
cycle              1000000:bit_error_cnt[         25]=                  54
cycle              1000000:bit_error_cnt[         26]=                  32
cycle              1000000:bit_error_cnt[         27]=                  16
cycle              1000000:bit_error_cnt[         28]=                   7
cycle              1000000:bit_error_cnt[         29]=                   4
cycle              1000000:bit_error_cnt[         30]=                   3
cycle              1000000:bit_error_cnt[         31]=                   0
