cycle              1000000:bit_error_cnt[          0]=                   6
cycle              1000000:bit_error_cnt[          1]=                   0
cycle              1000000:bit_error_cnt[          2]=                   0
cycle              1000000:bit_error_cnt[          3]=                   0
cycle              1000000:bit_error_cnt[          4]=                   0
cycle              1000000:bit_error_cnt[          5]=                   0
cycle              1000000:bit_error_cnt[          6]=                   0
cycle              1000000:bit_error_cnt[          7]=                   0
cycle              1000000:bit_error_cnt[          8]=                   0
cycle              1000000:bit_error_cnt[          9]=                   0
cycle              1000000:bit_error_cnt[         10]=                   0
cycle              1000000:bit_error_cnt[         11]=                   0
cycle              1000000:bit_error_cnt[         12]=                   0
cycle              1000000:bit_error_cnt[         13]=                   0
cycle              1000000:bit_error_cnt[         14]=                   0
cycle              1000000:bit_error_cnt[         15]=                   0
cycle              1000000:bit_error_cnt[         16]=                   0
cycle              1000000:bit_error_cnt[         17]=                   0
cycle              1000000:bit_error_cnt[         18]=                   0
cycle              1000000:bit_error_cnt[         19]=                   0
cycle              1000000:bit_error_cnt[         20]=                   0
cycle              1000000:bit_error_cnt[         21]=                   0
cycle              1000000:bit_error_cnt[         22]=                   0
cycle              1000000:bit_error_cnt[         23]=                   0
cycle              1000000:bit_error_cnt[         24]=                   0
cycle              1000000:bit_error_cnt[         25]=                   0
cycle              1000000:bit_error_cnt[         26]=                   0
cycle              1000000:bit_error_cnt[         27]=                   0
cycle              1000000:bit_error_cnt[         28]=                   0
cycle              1000000:bit_error_cnt[         29]=                   0
cycle              1000000:bit_error_cnt[         30]=                   0
cycle              1000000:bit_error_cnt[         31]=                   0
