cycle              1000000:bit_error_cnt[          0]=               41842
cycle              1000000:bit_error_cnt[          1]=               41298
cycle              1000000:bit_error_cnt[          2]=               41742
cycle              1000000:bit_error_cnt[          3]=               41604
cycle              1000000:bit_error_cnt[          4]=               40839
cycle              1000000:bit_error_cnt[          5]=               40454
cycle              1000000:bit_error_cnt[          6]=               40482
cycle              1000000:bit_error_cnt[          7]=               39167
cycle              1000000:bit_error_cnt[          8]=               37488
cycle              1000000:bit_error_cnt[          9]=               36138
cycle              1000000:bit_error_cnt[         10]=               34224
cycle              1000000:bit_error_cnt[         11]=               33483
cycle              1000000:bit_error_cnt[         12]=               32309
cycle              1000000:bit_error_cnt[         13]=               31404
cycle              1000000:bit_error_cnt[         14]=               31414
cycle              1000000:bit_error_cnt[         15]=               32559
cycle              1000000:bit_error_cnt[         16]=               32282
cycle              1000000:bit_error_cnt[         17]=               31940
cycle              1000000:bit_error_cnt[         18]=               31875
cycle              1000000:bit_error_cnt[         19]=               31485
cycle              1000000:bit_error_cnt[         20]=               30655
cycle              1000000:bit_error_cnt[         21]=               29437
cycle              1000000:bit_error_cnt[         22]=               26465
cycle              1000000:bit_error_cnt[         23]=               14865
cycle              1000000:bit_error_cnt[         24]=                8960
cycle              1000000:bit_error_cnt[         25]=                5665
cycle              1000000:bit_error_cnt[         26]=                3854
cycle              1000000:bit_error_cnt[         27]=                3062
cycle              1000000:bit_error_cnt[         28]=                2003
cycle              1000000:bit_error_cnt[         29]=                3481
cycle              1000000:bit_error_cnt[         30]=                2525
cycle              1000000:bit_error_cnt[         31]=                1074
