cycle              1000000:bit_error_cnt[          0]=              647553
cycle              1000000:bit_error_cnt[          1]=               55055
cycle              1000000:bit_error_cnt[          2]=               54542
cycle              1000000:bit_error_cnt[          3]=               54831
cycle              1000000:bit_error_cnt[          4]=               54775
cycle              1000000:bit_error_cnt[          5]=               55014
cycle              1000000:bit_error_cnt[          6]=               55048
cycle              1000000:bit_error_cnt[          7]=               54764
cycle              1000000:bit_error_cnt[          8]=               54159
cycle              1000000:bit_error_cnt[          9]=               53180
cycle              1000000:bit_error_cnt[         10]=               47712
cycle              1000000:bit_error_cnt[         11]=               47202
cycle              1000000:bit_error_cnt[         12]=               43769
cycle              1000000:bit_error_cnt[         13]=               43685
cycle              1000000:bit_error_cnt[         14]=               44387
cycle              1000000:bit_error_cnt[         15]=               47259
cycle              1000000:bit_error_cnt[         16]=               53516
cycle              1000000:bit_error_cnt[         17]=               52831
cycle              1000000:bit_error_cnt[         18]=               52910
cycle              1000000:bit_error_cnt[         19]=               51575
cycle              1000000:bit_error_cnt[         20]=               46145
cycle              1000000:bit_error_cnt[         21]=               47042
cycle              1000000:bit_error_cnt[         22]=               46342
cycle              1000000:bit_error_cnt[         23]=              293545
cycle              1000000:bit_error_cnt[         24]=              294289
cycle              1000000:bit_error_cnt[         25]=              292647
cycle              1000000:bit_error_cnt[         26]=              294466
cycle              1000000:bit_error_cnt[         27]=              293790
cycle              1000000:bit_error_cnt[         28]=              293289
cycle              1000000:bit_error_cnt[         29]=              292324
cycle              1000000:bit_error_cnt[         30]=              294184
cycle              1000000:bit_error_cnt[         31]=              302403
