cycle              1000000:bit_error_cnt[          0]=                4989
cycle              1000000:bit_error_cnt[          1]=                4832
cycle              1000000:bit_error_cnt[          2]=                4414
cycle              1000000:bit_error_cnt[          3]=                5026
cycle              1000000:bit_error_cnt[          4]=                5047
cycle              1000000:bit_error_cnt[          5]=                4745
cycle              1000000:bit_error_cnt[          6]=                4947
cycle              1000000:bit_error_cnt[          7]=                7082
cycle              1000000:bit_error_cnt[          8]=                7889
cycle              1000000:bit_error_cnt[          9]=               10350
cycle              1000000:bit_error_cnt[         10]=               10541
cycle              1000000:bit_error_cnt[         11]=               12539
cycle              1000000:bit_error_cnt[         12]=               14685
cycle              1000000:bit_error_cnt[         13]=               15050
cycle              1000000:bit_error_cnt[         14]=               14602
cycle              1000000:bit_error_cnt[         15]=               14379
cycle              1000000:bit_error_cnt[         16]=               13786
cycle              1000000:bit_error_cnt[         17]=               14509
cycle              1000000:bit_error_cnt[         18]=               14276
cycle              1000000:bit_error_cnt[         19]=               15538
cycle              1000000:bit_error_cnt[         20]=               14206
cycle              1000000:bit_error_cnt[         21]=               14429
cycle              1000000:bit_error_cnt[         22]=               13346
cycle              1000000:bit_error_cnt[         23]=               10091
cycle              1000000:bit_error_cnt[         24]=                6174
cycle              1000000:bit_error_cnt[         25]=                4145
cycle              1000000:bit_error_cnt[         26]=                3179
cycle              1000000:bit_error_cnt[         27]=                2584
cycle              1000000:bit_error_cnt[         28]=                3948
cycle              1000000:bit_error_cnt[         29]=                4659
cycle              1000000:bit_error_cnt[         30]=                4122
cycle              1000000:bit_error_cnt[         31]=                1229
