cycle              1000000:bit_error_cnt[          0]=                 226
cycle              1000000:bit_error_cnt[          1]=                 204
cycle              1000000:bit_error_cnt[          2]=                 171
cycle              1000000:bit_error_cnt[          3]=                 129
cycle              1000000:bit_error_cnt[          4]=                 105
cycle              1000000:bit_error_cnt[          5]=                  86
cycle              1000000:bit_error_cnt[          6]=                 147
cycle              1000000:bit_error_cnt[          7]=                 164
cycle              1000000:bit_error_cnt[          8]=                 112
cycle              1000000:bit_error_cnt[          9]=                  58
cycle              1000000:bit_error_cnt[         10]=                  38
cycle              1000000:bit_error_cnt[         11]=                 240
cycle              1000000:bit_error_cnt[         12]=                 457
cycle              1000000:bit_error_cnt[         13]=                 364
cycle              1000000:bit_error_cnt[         14]=                 200
cycle              1000000:bit_error_cnt[         15]=                 102
cycle              1000000:bit_error_cnt[         16]=                 133
cycle              1000000:bit_error_cnt[         17]=                  59
cycle              1000000:bit_error_cnt[         18]=                  16
cycle              1000000:bit_error_cnt[         19]=                  32
cycle              1000000:bit_error_cnt[         20]=                  31
cycle              1000000:bit_error_cnt[         21]=                  15
cycle              1000000:bit_error_cnt[         22]=                   8
cycle              1000000:bit_error_cnt[         23]=                   7
cycle              1000000:bit_error_cnt[         24]=                   1
cycle              1000000:bit_error_cnt[         25]=                   0
cycle              1000000:bit_error_cnt[         26]=                   0
cycle              1000000:bit_error_cnt[         27]=                   0
cycle              1000000:bit_error_cnt[         28]=                   0
cycle              1000000:bit_error_cnt[         29]=                   0
cycle              1000000:bit_error_cnt[         30]=                   0
cycle              1000000:bit_error_cnt[         31]=                   0
