cycle              1000000:bit_error_cnt[          0]=              648362
cycle              1000000:bit_error_cnt[          1]=               28175
cycle              1000000:bit_error_cnt[          2]=               27995
cycle              1000000:bit_error_cnt[          3]=               28154
cycle              1000000:bit_error_cnt[          4]=               28066
cycle              1000000:bit_error_cnt[          5]=               28129
cycle              1000000:bit_error_cnt[          6]=               28177
cycle              1000000:bit_error_cnt[          7]=               28257
cycle              1000000:bit_error_cnt[          8]=               28119
cycle              1000000:bit_error_cnt[          9]=               28080
cycle              1000000:bit_error_cnt[         10]=               28089
cycle              1000000:bit_error_cnt[         11]=               27958
cycle              1000000:bit_error_cnt[         12]=               28062
cycle              1000000:bit_error_cnt[         13]=               28137
cycle              1000000:bit_error_cnt[         14]=               28205
cycle              1000000:bit_error_cnt[         15]=               28009
cycle              1000000:bit_error_cnt[         16]=               28138
cycle              1000000:bit_error_cnt[         17]=               28184
cycle              1000000:bit_error_cnt[         18]=               27980
cycle              1000000:bit_error_cnt[         19]=               27735
cycle              1000000:bit_error_cnt[         20]=               27301
cycle              1000000:bit_error_cnt[         21]=               25826
cycle              1000000:bit_error_cnt[         22]=               23977
cycle              1000000:bit_error_cnt[         23]=              205359
cycle              1000000:bit_error_cnt[         24]=              204610
cycle              1000000:bit_error_cnt[         25]=              205019
cycle              1000000:bit_error_cnt[         26]=              204979
cycle              1000000:bit_error_cnt[         27]=              203778
cycle              1000000:bit_error_cnt[         28]=              204947
cycle              1000000:bit_error_cnt[         29]=              204640
cycle              1000000:bit_error_cnt[         30]=              203519
cycle              1000000:bit_error_cnt[         31]=              294772
