cycle              1000000:bit_error_cnt[          0]=              528195
cycle              1000000:bit_error_cnt[          1]=              107459
cycle              1000000:bit_error_cnt[          2]=              107258
cycle              1000000:bit_error_cnt[          3]=              106584
cycle              1000000:bit_error_cnt[          4]=              105965
cycle              1000000:bit_error_cnt[          5]=              104154
cycle              1000000:bit_error_cnt[          6]=              104444
cycle              1000000:bit_error_cnt[          7]=              104403
cycle              1000000:bit_error_cnt[          8]=               98025
cycle              1000000:bit_error_cnt[          9]=               95801
cycle              1000000:bit_error_cnt[         10]=               93795
cycle              1000000:bit_error_cnt[         11]=               92057
cycle              1000000:bit_error_cnt[         12]=               78701
cycle              1000000:bit_error_cnt[         13]=               80357
cycle              1000000:bit_error_cnt[         14]=               78437
cycle              1000000:bit_error_cnt[         15]=               89150
cycle              1000000:bit_error_cnt[         16]=               85617
cycle              1000000:bit_error_cnt[         17]=               86956
cycle              1000000:bit_error_cnt[         18]=               94108
cycle              1000000:bit_error_cnt[         19]=               90945
cycle              1000000:bit_error_cnt[         20]=               94167
cycle              1000000:bit_error_cnt[         21]=               77721
cycle              1000000:bit_error_cnt[         22]=               86960
cycle              1000000:bit_error_cnt[         23]=              115657
cycle              1000000:bit_error_cnt[         24]=              108925
cycle              1000000:bit_error_cnt[         25]=              117813
cycle              1000000:bit_error_cnt[         26]=              106417
cycle              1000000:bit_error_cnt[         27]=              114563
cycle              1000000:bit_error_cnt[         28]=              118024
cycle              1000000:bit_error_cnt[         29]=              112553
cycle              1000000:bit_error_cnt[         30]=              114495
cycle              1000000:bit_error_cnt[         31]=              179744
