cycle              1000000:bit_error_cnt[          0]=              577998
cycle              1000000:bit_error_cnt[          1]=               26887
cycle              1000000:bit_error_cnt[          2]=               26769
cycle              1000000:bit_error_cnt[          3]=               26870
cycle              1000000:bit_error_cnt[          4]=               26813
cycle              1000000:bit_error_cnt[          5]=               26824
cycle              1000000:bit_error_cnt[          6]=               26892
cycle              1000000:bit_error_cnt[          7]=               26905
cycle              1000000:bit_error_cnt[          8]=               26744
cycle              1000000:bit_error_cnt[          9]=               26731
cycle              1000000:bit_error_cnt[         10]=               26801
cycle              1000000:bit_error_cnt[         11]=               26681
cycle              1000000:bit_error_cnt[         12]=               26772
cycle              1000000:bit_error_cnt[         13]=               26749
cycle              1000000:bit_error_cnt[         14]=               26531
cycle              1000000:bit_error_cnt[         15]=               26601
cycle              1000000:bit_error_cnt[         16]=               26699
cycle              1000000:bit_error_cnt[         17]=               26637
cycle              1000000:bit_error_cnt[         18]=               26591
cycle              1000000:bit_error_cnt[         19]=               26380
cycle              1000000:bit_error_cnt[         20]=               25953
cycle              1000000:bit_error_cnt[         21]=               24803
cycle              1000000:bit_error_cnt[         22]=               22605
cycle              1000000:bit_error_cnt[         23]=              203196
cycle              1000000:bit_error_cnt[         24]=              202738
cycle              1000000:bit_error_cnt[         25]=              203240
cycle              1000000:bit_error_cnt[         26]=              203183
cycle              1000000:bit_error_cnt[         27]=              203049
cycle              1000000:bit_error_cnt[         28]=              203223
cycle              1000000:bit_error_cnt[         29]=              202845
cycle              1000000:bit_error_cnt[         30]=              201902
cycle              1000000:bit_error_cnt[         31]=              303713
