cycle              1000000:bit_error_cnt[          0]=               73916
cycle              1000000:bit_error_cnt[          1]=               68420
cycle              1000000:bit_error_cnt[          2]=               68412
cycle              1000000:bit_error_cnt[          3]=               68301
cycle              1000000:bit_error_cnt[          4]=               68743
cycle              1000000:bit_error_cnt[          5]=               68509
cycle              1000000:bit_error_cnt[          6]=               66556
cycle              1000000:bit_error_cnt[          7]=               64697
cycle              1000000:bit_error_cnt[          8]=               63258
cycle              1000000:bit_error_cnt[          9]=               62387
cycle              1000000:bit_error_cnt[         10]=               59986
cycle              1000000:bit_error_cnt[         11]=               57979
cycle              1000000:bit_error_cnt[         12]=               55545
cycle              1000000:bit_error_cnt[         13]=               55001
cycle              1000000:bit_error_cnt[         14]=               55124
cycle              1000000:bit_error_cnt[         15]=               55724
cycle              1000000:bit_error_cnt[         16]=               52673
cycle              1000000:bit_error_cnt[         17]=               52046
cycle              1000000:bit_error_cnt[         18]=               53993
cycle              1000000:bit_error_cnt[         19]=               52375
cycle              1000000:bit_error_cnt[         20]=               54646
cycle              1000000:bit_error_cnt[         21]=               53930
cycle              1000000:bit_error_cnt[         22]=               50521
cycle              1000000:bit_error_cnt[         23]=               43660
cycle              1000000:bit_error_cnt[         24]=               33390
cycle              1000000:bit_error_cnt[         25]=               27278
cycle              1000000:bit_error_cnt[         26]=               25658
cycle              1000000:bit_error_cnt[         27]=               26194
cycle              1000000:bit_error_cnt[         28]=               28025
cycle              1000000:bit_error_cnt[         29]=               28755
cycle              1000000:bit_error_cnt[         30]=               23405
cycle              1000000:bit_error_cnt[         31]=                6700
