cycle              1000000:bit_error_cnt[          0]=              607417
cycle              1000000:bit_error_cnt[          1]=               35143
cycle              1000000:bit_error_cnt[          2]=               34993
cycle              1000000:bit_error_cnt[          3]=               34422
cycle              1000000:bit_error_cnt[          4]=               34426
cycle              1000000:bit_error_cnt[          5]=               34570
cycle              1000000:bit_error_cnt[          6]=               35202
cycle              1000000:bit_error_cnt[          7]=               34080
cycle              1000000:bit_error_cnt[          8]=               34342
cycle              1000000:bit_error_cnt[          9]=               34242
cycle              1000000:bit_error_cnt[         10]=               34292
cycle              1000000:bit_error_cnt[         11]=               34278
cycle              1000000:bit_error_cnt[         12]=               33660
cycle              1000000:bit_error_cnt[         13]=               33305
cycle              1000000:bit_error_cnt[         14]=               33400
cycle              1000000:bit_error_cnt[         15]=               33880
cycle              1000000:bit_error_cnt[         16]=               33890
cycle              1000000:bit_error_cnt[         17]=               34031
cycle              1000000:bit_error_cnt[         18]=               33757
cycle              1000000:bit_error_cnt[         19]=               33453
cycle              1000000:bit_error_cnt[         20]=               32792
cycle              1000000:bit_error_cnt[         21]=               31565
cycle              1000000:bit_error_cnt[         22]=               29079
cycle              1000000:bit_error_cnt[         23]=              252438
cycle              1000000:bit_error_cnt[         24]=              252465
cycle              1000000:bit_error_cnt[         25]=              252206
cycle              1000000:bit_error_cnt[         26]=              253121
cycle              1000000:bit_error_cnt[         27]=              250751
cycle              1000000:bit_error_cnt[         28]=              252571
cycle              1000000:bit_error_cnt[         29]=              248960
cycle              1000000:bit_error_cnt[         30]=              251401
cycle              1000000:bit_error_cnt[         31]=              297878
