cycle              1000000:bit_error_cnt[          0]=               43449
cycle              1000000:bit_error_cnt[          1]=               43326
cycle              1000000:bit_error_cnt[          2]=               43509
cycle              1000000:bit_error_cnt[          3]=               43075
cycle              1000000:bit_error_cnt[          4]=               43048
cycle              1000000:bit_error_cnt[          5]=               43606
cycle              1000000:bit_error_cnt[          6]=               43088
cycle              1000000:bit_error_cnt[          7]=               41014
cycle              1000000:bit_error_cnt[          8]=               39782
cycle              1000000:bit_error_cnt[          9]=               37857
cycle              1000000:bit_error_cnt[         10]=               37349
cycle              1000000:bit_error_cnt[         11]=               35154
cycle              1000000:bit_error_cnt[         12]=               33767
cycle              1000000:bit_error_cnt[         13]=               33172
cycle              1000000:bit_error_cnt[         14]=               33830
cycle              1000000:bit_error_cnt[         15]=               33267
cycle              1000000:bit_error_cnt[         16]=               34049
cycle              1000000:bit_error_cnt[         17]=               32402
cycle              1000000:bit_error_cnt[         18]=               33155
cycle              1000000:bit_error_cnt[         19]=               32470
cycle              1000000:bit_error_cnt[         20]=               33713
cycle              1000000:bit_error_cnt[         21]=               32474
cycle              1000000:bit_error_cnt[         22]=               31456
cycle              1000000:bit_error_cnt[         23]=               20261
cycle              1000000:bit_error_cnt[         24]=               12249
cycle              1000000:bit_error_cnt[         25]=                7735
cycle              1000000:bit_error_cnt[         26]=                5307
cycle              1000000:bit_error_cnt[         27]=                4567
cycle              1000000:bit_error_cnt[         28]=                7118
cycle              1000000:bit_error_cnt[         29]=                8008
cycle              1000000:bit_error_cnt[         30]=                3394
cycle              1000000:bit_error_cnt[         31]=                 941
