cycle              1000000:bit_error_cnt[          0]=               36923
cycle              1000000:bit_error_cnt[          1]=               36464
cycle              1000000:bit_error_cnt[          2]=               36761
cycle              1000000:bit_error_cnt[          3]=               37558
cycle              1000000:bit_error_cnt[          4]=               37607
cycle              1000000:bit_error_cnt[          5]=               36197
cycle              1000000:bit_error_cnt[          6]=               36085
cycle              1000000:bit_error_cnt[          7]=               35822
cycle              1000000:bit_error_cnt[          8]=               34169
cycle              1000000:bit_error_cnt[          9]=               33124
cycle              1000000:bit_error_cnt[         10]=               31918
cycle              1000000:bit_error_cnt[         11]=               31157
cycle              1000000:bit_error_cnt[         12]=               29905
cycle              1000000:bit_error_cnt[         13]=               26144
cycle              1000000:bit_error_cnt[         14]=               25431
cycle              1000000:bit_error_cnt[         15]=               24789
cycle              1000000:bit_error_cnt[         16]=               25820
cycle              1000000:bit_error_cnt[         17]=               25283
cycle              1000000:bit_error_cnt[         18]=               24081
cycle              1000000:bit_error_cnt[         19]=               24862
cycle              1000000:bit_error_cnt[         20]=               24873
cycle              1000000:bit_error_cnt[         21]=               21844
cycle              1000000:bit_error_cnt[         22]=               16329
cycle              1000000:bit_error_cnt[         23]=                7575
cycle              1000000:bit_error_cnt[         24]=                4639
cycle              1000000:bit_error_cnt[         25]=                3028
cycle              1000000:bit_error_cnt[         26]=                2180
cycle              1000000:bit_error_cnt[         27]=                1612
cycle              1000000:bit_error_cnt[         28]=                1346
cycle              1000000:bit_error_cnt[         29]=                1302
cycle              1000000:bit_error_cnt[         30]=                1336
cycle              1000000:bit_error_cnt[         31]=                 908
