cycle              1000000:bit_error_cnt[          0]=              552073
cycle              1000000:bit_error_cnt[          1]=               28521
cycle              1000000:bit_error_cnt[          2]=               28421
cycle              1000000:bit_error_cnt[          3]=               28523
cycle              1000000:bit_error_cnt[          4]=               28428
cycle              1000000:bit_error_cnt[          5]=               28541
cycle              1000000:bit_error_cnt[          6]=               28496
cycle              1000000:bit_error_cnt[          7]=               28520
cycle              1000000:bit_error_cnt[          8]=               28263
cycle              1000000:bit_error_cnt[          9]=               28174
cycle              1000000:bit_error_cnt[         10]=               28144
cycle              1000000:bit_error_cnt[         11]=               28188
cycle              1000000:bit_error_cnt[         12]=               27831
cycle              1000000:bit_error_cnt[         13]=               28241
cycle              1000000:bit_error_cnt[         14]=               27632
cycle              1000000:bit_error_cnt[         15]=               28033
cycle              1000000:bit_error_cnt[         16]=               28095
cycle              1000000:bit_error_cnt[         17]=               28059
cycle              1000000:bit_error_cnt[         18]=               27912
cycle              1000000:bit_error_cnt[         19]=               27759
cycle              1000000:bit_error_cnt[         20]=               27366
cycle              1000000:bit_error_cnt[         21]=               26457
cycle              1000000:bit_error_cnt[         22]=               24712
cycle              1000000:bit_error_cnt[         23]=              196178
cycle              1000000:bit_error_cnt[         24]=              196011
cycle              1000000:bit_error_cnt[         25]=              196271
cycle              1000000:bit_error_cnt[         26]=              196086
cycle              1000000:bit_error_cnt[         27]=              196003
cycle              1000000:bit_error_cnt[         28]=              196070
cycle              1000000:bit_error_cnt[         29]=              195656
cycle              1000000:bit_error_cnt[         30]=              194492
cycle              1000000:bit_error_cnt[         31]=              319543
