cycle              1000000:bit_error_cnt[          0]=               22292
cycle              1000000:bit_error_cnt[          1]=               23046
cycle              1000000:bit_error_cnt[          2]=               24378
cycle              1000000:bit_error_cnt[          3]=               26749
cycle              1000000:bit_error_cnt[          4]=               27733
cycle              1000000:bit_error_cnt[          5]=               25352
cycle              1000000:bit_error_cnt[          6]=               25196
cycle              1000000:bit_error_cnt[          7]=               26044
cycle              1000000:bit_error_cnt[          8]=               24865
cycle              1000000:bit_error_cnt[          9]=               25223
cycle              1000000:bit_error_cnt[         10]=               24302
cycle              1000000:bit_error_cnt[         11]=               23715
cycle              1000000:bit_error_cnt[         12]=               22023
cycle              1000000:bit_error_cnt[         13]=               16797
cycle              1000000:bit_error_cnt[         14]=               14391
cycle              1000000:bit_error_cnt[         15]=               12443
cycle              1000000:bit_error_cnt[         16]=               12870
cycle              1000000:bit_error_cnt[         17]=               12949
cycle              1000000:bit_error_cnt[         18]=               12863
cycle              1000000:bit_error_cnt[         19]=               14583
cycle              1000000:bit_error_cnt[         20]=               13668
cycle              1000000:bit_error_cnt[         21]=               11080
cycle              1000000:bit_error_cnt[         22]=                6372
cycle              1000000:bit_error_cnt[         23]=                2760
cycle              1000000:bit_error_cnt[         24]=                1556
cycle              1000000:bit_error_cnt[         25]=                 856
cycle              1000000:bit_error_cnt[         26]=                 539
cycle              1000000:bit_error_cnt[         27]=                 353
cycle              1000000:bit_error_cnt[         28]=                 260
cycle              1000000:bit_error_cnt[         29]=                 218
cycle              1000000:bit_error_cnt[         30]=                 240
cycle              1000000:bit_error_cnt[         31]=                 144
