cycle              1000000:bit_error_cnt[          0]=               22927
cycle              1000000:bit_error_cnt[          1]=               23879
cycle              1000000:bit_error_cnt[          2]=               25129
cycle              1000000:bit_error_cnt[          3]=               27416
cycle              1000000:bit_error_cnt[          4]=               28202
cycle              1000000:bit_error_cnt[          5]=               25781
cycle              1000000:bit_error_cnt[          6]=               25502
cycle              1000000:bit_error_cnt[          7]=               26407
cycle              1000000:bit_error_cnt[          8]=               25291
cycle              1000000:bit_error_cnt[          9]=               25790
cycle              1000000:bit_error_cnt[         10]=               25417
cycle              1000000:bit_error_cnt[         11]=               25213
cycle              1000000:bit_error_cnt[         12]=               23621
cycle              1000000:bit_error_cnt[         13]=               18598
cycle              1000000:bit_error_cnt[         14]=               16720
cycle              1000000:bit_error_cnt[         15]=               15046
cycle              1000000:bit_error_cnt[         16]=               15541
cycle              1000000:bit_error_cnt[         17]=               15449
cycle              1000000:bit_error_cnt[         18]=               14988
cycle              1000000:bit_error_cnt[         19]=               16098
cycle              1000000:bit_error_cnt[         20]=               15182
cycle              1000000:bit_error_cnt[         21]=               12245
cycle              1000000:bit_error_cnt[         22]=                7117
cycle              1000000:bit_error_cnt[         23]=                3103
cycle              1000000:bit_error_cnt[         24]=                1802
cycle              1000000:bit_error_cnt[         25]=                1024
cycle              1000000:bit_error_cnt[         26]=                 684
cycle              1000000:bit_error_cnt[         27]=                 472
cycle              1000000:bit_error_cnt[         28]=                 349
cycle              1000000:bit_error_cnt[         29]=                 301
cycle              1000000:bit_error_cnt[         30]=                 235
cycle              1000000:bit_error_cnt[         31]=                 102
